{
  "width": 936, 
  "requests": [
    {
      "path": "/mail/?shva=1", 
      "response_file": "000", 
      "method": "GET", 
      "headers": {
        "accept-language": "en-US,en;q=0.8", 
        "host": "mail.google.com", 
        "accept": "application/xml,application/xhtml+xml,text/html;q=0.9,text/plain;q=0.8,image/png,*/*;q=0.5", 
        "user-agent": "Mozilla/5.0 (X11; U; Linux x86_64; en-US) AppleWebKit/533.4 (KHTML, like Gecko) Chrome/5.0.375.99 Safari/533.4", 
        "accept-charset": "ISO-8859-1,utf-8;q=0.7,*;q=0.3", 
        "connection": "keep-alive", 
        "cookie": "GXSP=S; GX=DQAAAKAAAACWL7JAPh93xDed9s0hJ7OBtzX7YITwhj-_bxdDl5MIXHH63NzEW_QsiVVWnjuX2zS6J2HY-ZqiB1ttGrELWjUz-0Bl6rpkiyRv-f2y2xTu2PAaw5VgE55sLjE6MVS_S3RbLD1oCA21QqCd6YgEMtu3yJ8GdRTd_C11HffhBchREp1yAqLkvAmzdwxzO0Uglt6N9MqfjUv736354T-7b_zk; gmailchat=chrome.record.playback@gmail.com/287506; GMAIL_STAT_383=/S:v=2&a=i&ev=tl&t=1183&e=m%3D0%2Cr%3D132%2Cj%3D143%2Cjl%3D576%2Cs%3D597%2Ci%3D803&r=1&rn=29&mn=tnt%3A120&mg=tsr%3An&ai=mail%3Ai.383.0.3; NID=33=Q8YOTm040cX43J0ziZ_J8JFF-yed7OqxGs8U400WonyYkwj2EMIW9iM6he8WXFrLx7fpjTIOMwAZMd1acEiRiEhisiktZJJWOmCCzC_JvyoGZDmK5_RNUcB16Dzn75ZM; PREF=ID=c9a5d1cf1b0a06a4:U=12b4c458efd9fb10:TM=1270718561:LM=1270718582:GM=1:S=e1gS8-kLqBDTJncY; rememberme=true; SID=DQAAAKAAAAA3AwjciByqHrI5zcPf0LxEBIIz3xWTonQqNuQNvcM9NrL8Z9WTkwkTXTKuAJG4MPG3ZFdQxi8ISXKLBW5jZE5_b7zEbzIi2YM_796PfHlulMMe6uCmVnWp3Vdj0x4O2OwjeDMkxHF2JS5zUgpeCqeF8gPP9V44YKakFtRP_wOjYvtE6IbQlff61eT3DauT4qc30BOfJJjh_oDPPpo6rnYO; HSID=ATV3juZaZTkJWIFqS; SSID=A-W5xDS9j7T2jJIoW"
      }
    }, 
    {
      "path": "/mail/?view=page&name=browser&ver=1eic6yu9oa4y3", 
      "response_file": "001", 
      "method": "GET", 
      "headers": {
        "accept-language": "en-US,en;q=0.8", 
        "host": "mail.google.com", 
        "accept": "*/*", 
        "user-agent": "Mozilla/5.0 (X11; U; Linux x86_64; en-US) AppleWebKit/533.4 (KHTML, like Gecko) Chrome/5.0.375.99 Safari/533.4", 
        "accept-charset": "ISO-8859-1,utf-8;q=0.7,*;q=0.3", 
        "connection": "keep-alive", 
        "referer": "https://mail.google.com/mail/?shva=1", 
        "cookie": "GXSP=S; GX=DQAAAKAAAACWL7JAPh93xDed9s0hJ7OBtzX7YITwhj-_bxdDl5MIXHH63NzEW_QsiVVWnjuX2zS6J2HY-ZqiB1ttGrELWjUz-0Bl6rpkiyRv-f2y2xTu2PAaw5VgE55sLjE6MVS_S3RbLD1oCA21QqCd6YgEMtu3yJ8GdRTd_C11HffhBchREp1yAqLkvAmzdwxzO0Uglt6N9MqfjUv736354T-7b_zk; gmailchat=chrome.record.playback@gmail.com/287506; GMAIL_STAT_383=/S:v=2&a=i&ev=tl&t=1183&e=m%3D0%2Cr%3D132%2Cj%3D143%2Cjl%3D576%2Cs%3D597%2Ci%3D803&r=1&rn=29&mn=tnt%3A120&mg=tsr%3An&ai=mail%3Ai.383.0.3; NID=33=Q8YOTm040cX43J0ziZ_J8JFF-yed7OqxGs8U400WonyYkwj2EMIW9iM6he8WXFrLx7fpjTIOMwAZMd1acEiRiEhisiktZJJWOmCCzC_JvyoGZDmK5_RNUcB16Dzn75ZM; PREF=ID=c9a5d1cf1b0a06a4:U=12b4c458efd9fb10:TM=1270718561:LM=1270718582:GM=1:S=e1gS8-kLqBDTJncY; rememberme=true; SID=DQAAAKAAAAA3AwjciByqHrI5zcPf0LxEBIIz3xWTonQqNuQNvcM9NrL8Z9WTkwkTXTKuAJG4MPG3ZFdQxi8ISXKLBW5jZE5_b7zEbzIi2YM_796PfHlulMMe6uCmVnWp3Vdj0x4O2OwjeDMkxHF2JS5zUgpeCqeF8gPP9V44YKakFtRP_wOjYvtE6IbQlff61eT3DauT4qc30BOfJJjh_oDPPpo6rnYO; HSID=ATV3juZaZTkJWIFqS; SSID=A-W5xDS9j7T2jJIoW"
      }
    }, 
    {
      "path": "/mail/?ui=2&view=bsp&ver=ohhl4rw8mbn4", 
      "response_file": "002", 
      "method": "GET", 
      "headers": {
        "accept-language": "en-US,en;q=0.8", 
        "host": "mail.google.com", 
        "accept": "application/xml,application/xhtml+xml,text/html;q=0.9,text/plain;q=0.8,image/png,*/*;q=0.5", 
        "user-agent": "Mozilla/5.0 (X11; U; Linux x86_64; en-US) AppleWebKit/533.4 (KHTML, like Gecko) Chrome/5.0.375.99 Safari/533.4", 
        "accept-charset": "ISO-8859-1,utf-8;q=0.7,*;q=0.3", 
        "connection": "keep-alive", 
        "referer": "https://mail.google.com/mail/?shva=1", 
        "cookie": "GXSP=S; GX=DQAAAKAAAACWL7JAPh93xDed9s0hJ7OBtzX7YITwhj-_bxdDl5MIXHH63NzEW_QsiVVWnjuX2zS6J2HY-ZqiB1ttGrELWjUz-0Bl6rpkiyRv-f2y2xTu2PAaw5VgE55sLjE6MVS_S3RbLD1oCA21QqCd6YgEMtu3yJ8GdRTd_C11HffhBchREp1yAqLkvAmzdwxzO0Uglt6N9MqfjUv736354T-7b_zk; gmailchat=chrome.record.playback@gmail.com/287506; GMAIL_STAT_383=/S:v=2&a=i&ev=tl&t=1183&e=m%3D0%2Cr%3D132%2Cj%3D143%2Cjl%3D576%2Cs%3D597%2Ci%3D803&r=1&rn=29&mn=tnt%3A120&mg=tsr%3An&ai=mail%3Ai.383.0.3; NID=33=Q8YOTm040cX43J0ziZ_J8JFF-yed7OqxGs8U400WonyYkwj2EMIW9iM6he8WXFrLx7fpjTIOMwAZMd1acEiRiEhisiktZJJWOmCCzC_JvyoGZDmK5_RNUcB16Dzn75ZM; PREF=ID=c9a5d1cf1b0a06a4:U=12b4c458efd9fb10:TM=1270718561:LM=1270718582:GM=1:S=e1gS8-kLqBDTJncY; rememberme=true; SID=DQAAAKAAAAA3AwjciByqHrI5zcPf0LxEBIIz3xWTonQqNuQNvcM9NrL8Z9WTkwkTXTKuAJG4MPG3ZFdQxi8ISXKLBW5jZE5_b7zEbzIi2YM_796PfHlulMMe6uCmVnWp3Vdj0x4O2OwjeDMkxHF2JS5zUgpeCqeF8gPP9V44YKakFtRP_wOjYvtE6IbQlff61eT3DauT4qc30BOfJJjh_oDPPpo6rnYO; HSID=ATV3juZaZTkJWIFqS; SSID=A-W5xDS9j7T2jJIoW; TZ=-240"
      }
    }, 
    {
      "path": "/mail/?ui=2&view=js&name=main,tlist&ver=msMvpc35A6Q.en.&am=!5unIWCRtioyxxX0CEfMmgmqP3saW8vf3U0c-Ancf0xClXUmWcg&fri", 
      "response_file": "003", 
      "method": "GET", 
      "headers": {
        "accept-language": "en-US,en;q=0.8", 
        "host": "mail.google.com", 
        "accept": "application/xml,application/xhtml+xml,text/html;q=0.9,text/plain;q=0.8,image/png,*/*;q=0.5", 
        "user-agent": "Mozilla/5.0 (X11; U; Linux x86_64; en-US) AppleWebKit/533.4 (KHTML, like Gecko) Chrome/5.0.375.99 Safari/533.4", 
        "accept-charset": "ISO-8859-1,utf-8;q=0.7,*;q=0.3", 
        "connection": "keep-alive", 
        "referer": "https://mail.google.com/mail/?shva=1", 
        "cookie": "GXSP=S; GX=DQAAAKAAAACWL7JAPh93xDed9s0hJ7OBtzX7YITwhj-_bxdDl5MIXHH63NzEW_QsiVVWnjuX2zS6J2HY-ZqiB1ttGrELWjUz-0Bl6rpkiyRv-f2y2xTu2PAaw5VgE55sLjE6MVS_S3RbLD1oCA21QqCd6YgEMtu3yJ8GdRTd_C11HffhBchREp1yAqLkvAmzdwxzO0Uglt6N9MqfjUv736354T-7b_zk; gmailchat=chrome.record.playback@gmail.com/287506; GMAIL_STAT_383=/S:v=2&a=i&ev=tl&t=1183&e=m%3D0%2Cr%3D132%2Cj%3D143%2Cjl%3D576%2Cs%3D597%2Ci%3D803&r=1&rn=29&mn=tnt%3A120&mg=tsr%3An&ai=mail%3Ai.383.0.3; NID=33=Q8YOTm040cX43J0ziZ_J8JFF-yed7OqxGs8U400WonyYkwj2EMIW9iM6he8WXFrLx7fpjTIOMwAZMd1acEiRiEhisiktZJJWOmCCzC_JvyoGZDmK5_RNUcB16Dzn75ZM; PREF=ID=c9a5d1cf1b0a06a4:U=12b4c458efd9fb10:TM=1270718561:LM=1270718582:GM=1:S=e1gS8-kLqBDTJncY; rememberme=true; SID=DQAAAKAAAAA3AwjciByqHrI5zcPf0LxEBIIz3xWTonQqNuQNvcM9NrL8Z9WTkwkTXTKuAJG4MPG3ZFdQxi8ISXKLBW5jZE5_b7zEbzIi2YM_796PfHlulMMe6uCmVnWp3Vdj0x4O2OwjeDMkxHF2JS5zUgpeCqeF8gPP9V44YKakFtRP_wOjYvtE6IbQlff61eT3DauT4qc30BOfJJjh_oDPPpo6rnYO; HSID=ATV3juZaZTkJWIFqS; SSID=A-W5xDS9j7T2jJIoW; TZ=-240"
      }
    }, 
    {
      "path": "/mail/?ui=2&view=ss&mset=main&ver=4n8bm2s7y8xz&am=!5unIWCRtioyxxX0CEfMmgmqP3saW8vf3U0c-Ancf0xClXUmWcg&fri", 
      "response_file": "004", 
      "method": "GET", 
      "headers": {
        "accept-language": "en-US,en;q=0.8", 
        "host": "mail.google.com", 
        "accept": "*/*", 
        "user-agent": "Mozilla/5.0 (X11; U; Linux x86_64; en-US) AppleWebKit/533.4 (KHTML, like Gecko) Chrome/5.0.375.99 Safari/533.4", 
        "accept-charset": "ISO-8859-1,utf-8;q=0.7,*;q=0.3", 
        "connection": "keep-alive", 
        "referer": "https://mail.google.com/mail/?shva=1", 
        "cookie": "GXSP=S; GX=DQAAAKAAAACWL7JAPh93xDed9s0hJ7OBtzX7YITwhj-_bxdDl5MIXHH63NzEW_QsiVVWnjuX2zS6J2HY-ZqiB1ttGrELWjUz-0Bl6rpkiyRv-f2y2xTu2PAaw5VgE55sLjE6MVS_S3RbLD1oCA21QqCd6YgEMtu3yJ8GdRTd_C11HffhBchREp1yAqLkvAmzdwxzO0Uglt6N9MqfjUv736354T-7b_zk; gmailchat=chrome.record.playback@gmail.com/287506; GMAIL_STAT_383=/S:v=2&a=i&ev=tl&t=1183&e=m%3D0%2Cr%3D132%2Cj%3D143%2Cjl%3D576%2Cs%3D597%2Ci%3D803&r=1&rn=29&mn=tnt%3A120&mg=tsr%3An&ai=mail%3Ai.383.0.3; NID=33=Q8YOTm040cX43J0ziZ_J8JFF-yed7OqxGs8U400WonyYkwj2EMIW9iM6he8WXFrLx7fpjTIOMwAZMd1acEiRiEhisiktZJJWOmCCzC_JvyoGZDmK5_RNUcB16Dzn75ZM; PREF=ID=c9a5d1cf1b0a06a4:U=12b4c458efd9fb10:TM=1270718561:LM=1270718582:GM=1:S=e1gS8-kLqBDTJncY; rememberme=true; SID=DQAAAKAAAAA3AwjciByqHrI5zcPf0LxEBIIz3xWTonQqNuQNvcM9NrL8Z9WTkwkTXTKuAJG4MPG3ZFdQxi8ISXKLBW5jZE5_b7zEbzIi2YM_796PfHlulMMe6uCmVnWp3Vdj0x4O2OwjeDMkxHF2JS5zUgpeCqeF8gPP9V44YKakFtRP_wOjYvtE6IbQlff61eT3DauT4qc30BOfJJjh_oDPPpo6rnYO; HSID=ATV3juZaZTkJWIFqS; SSID=A-W5xDS9j7T2jJIoW; TZ=-240"
      }
    }, 
    {
      "path": "/mail/images/cleardot.gif", 
      "response_file": "005", 
      "method": "GET", 
      "headers": {
        "accept-language": "en-US,en;q=0.8", 
        "host": "mail.google.com", 
        "accept": "*/*", 
        "user-agent": "Mozilla/5.0 (X11; U; Linux x86_64; en-US) AppleWebKit/533.4 (KHTML, like Gecko) Chrome/5.0.375.99 Safari/533.4", 
        "accept-charset": "ISO-8859-1,utf-8;q=0.7,*;q=0.3", 
        "connection": "keep-alive", 
        "referer": "https://mail.google.com/mail/?ui=2&view=bsp&ver=ohhl4rw8mbn4", 
        "cookie": "GXSP=S; GX=DQAAAKAAAACWL7JAPh93xDed9s0hJ7OBtzX7YITwhj-_bxdDl5MIXHH63NzEW_QsiVVWnjuX2zS6J2HY-ZqiB1ttGrELWjUz-0Bl6rpkiyRv-f2y2xTu2PAaw5VgE55sLjE6MVS_S3RbLD1oCA21QqCd6YgEMtu3yJ8GdRTd_C11HffhBchREp1yAqLkvAmzdwxzO0Uglt6N9MqfjUv736354T-7b_zk; gmailchat=chrome.record.playback@gmail.com/287506; GMAIL_STAT_383=/S:v=2&a=i&ev=tl&t=1183&e=m%3D0%2Cr%3D132%2Cj%3D143%2Cjl%3D576%2Cs%3D597%2Ci%3D803&r=1&rn=29&mn=tnt%3A120&mg=tsr%3An&ai=mail%3Ai.383.0.3; NID=33=Q8YOTm040cX43J0ziZ_J8JFF-yed7OqxGs8U400WonyYkwj2EMIW9iM6he8WXFrLx7fpjTIOMwAZMd1acEiRiEhisiktZJJWOmCCzC_JvyoGZDmK5_RNUcB16Dzn75ZM; PREF=ID=c9a5d1cf1b0a06a4:U=12b4c458efd9fb10:TM=1270718561:LM=1270718582:GM=1:S=e1gS8-kLqBDTJncY; rememberme=true; SID=DQAAAKAAAAA3AwjciByqHrI5zcPf0LxEBIIz3xWTonQqNuQNvcM9NrL8Z9WTkwkTXTKuAJG4MPG3ZFdQxi8ISXKLBW5jZE5_b7zEbzIi2YM_796PfHlulMMe6uCmVnWp3Vdj0x4O2OwjeDMkxHF2JS5zUgpeCqeF8gPP9V44YKakFtRP_wOjYvtE6IbQlff61eT3DauT4qc30BOfJJjh_oDPPpo6rnYO; HSID=ATV3juZaZTkJWIFqS; SSID=A-W5xDS9j7T2jJIoW; TZ=-240"
      }
    }, 
    {
      "path": "/mail/rc/?a=af&c=e0ecff&w=4&h=4", 
      "response_file": "006", 
      "method": "GET", 
      "headers": {
        "accept-language": "en-US,en;q=0.8", 
        "host": "mail.google.com", 
        "accept": "*/*", 
        "user-agent": "Mozilla/5.0 (X11; U; Linux x86_64; en-US) AppleWebKit/533.4 (KHTML, like Gecko) Chrome/5.0.375.99 Safari/533.4", 
        "accept-charset": "ISO-8859-1,utf-8;q=0.7,*;q=0.3", 
        "connection": "keep-alive", 
        "referer": "https://mail.google.com/mail/?ui=2&view=bsp&ver=ohhl4rw8mbn4", 
        "cookie": "GXSP=S; GX=DQAAAKAAAACWL7JAPh93xDed9s0hJ7OBtzX7YITwhj-_bxdDl5MIXHH63NzEW_QsiVVWnjuX2zS6J2HY-ZqiB1ttGrELWjUz-0Bl6rpkiyRv-f2y2xTu2PAaw5VgE55sLjE6MVS_S3RbLD1oCA21QqCd6YgEMtu3yJ8GdRTd_C11HffhBchREp1yAqLkvAmzdwxzO0Uglt6N9MqfjUv736354T-7b_zk; gmailchat=chrome.record.playback@gmail.com/287506; GMAIL_STAT_383=/S:v=2&a=i&ev=tl&t=1183&e=m%3D0%2Cr%3D132%2Cj%3D143%2Cjl%3D576%2Cs%3D597%2Ci%3D803&r=1&rn=29&mn=tnt%3A120&mg=tsr%3An&ai=mail%3Ai.383.0.3; GMAIL_IMP=v*2%2Fed-ex%2Fjsnc%2Fbf-i%2Fd*0*0%2Fl-nv!%5Ei; NID=33=Q8YOTm040cX43J0ziZ_J8JFF-yed7OqxGs8U400WonyYkwj2EMIW9iM6he8WXFrLx7fpjTIOMwAZMd1acEiRiEhisiktZJJWOmCCzC_JvyoGZDmK5_RNUcB16Dzn75ZM; PREF=ID=c9a5d1cf1b0a06a4:U=12b4c458efd9fb10:TM=1270718561:LM=1270718582:GM=1:S=e1gS8-kLqBDTJncY; rememberme=true; SID=DQAAAKAAAAA3AwjciByqHrI5zcPf0LxEBIIz3xWTonQqNuQNvcM9NrL8Z9WTkwkTXTKuAJG4MPG3ZFdQxi8ISXKLBW5jZE5_b7zEbzIi2YM_796PfHlulMMe6uCmVnWp3Vdj0x4O2OwjeDMkxHF2JS5zUgpeCqeF8gPP9V44YKakFtRP_wOjYvtE6IbQlff61eT3DauT4qc30BOfJJjh_oDPPpo6rnYO; HSID=ATV3juZaZTkJWIFqS; SSID=A-W5xDS9j7T2jJIoW; TZ=-240"
      }
    }, 
    {
      "path": "/mail/rc/?a=af&c=6694e3&w=4&h=4", 
      "response_file": "007", 
      "method": "GET", 
      "headers": {
        "accept-language": "en-US,en;q=0.8", 
        "host": "mail.google.com", 
        "accept": "*/*", 
        "user-agent": "Mozilla/5.0 (X11; U; Linux x86_64; en-US) AppleWebKit/533.4 (KHTML, like Gecko) Chrome/5.0.375.99 Safari/533.4", 
        "accept-charset": "ISO-8859-1,utf-8;q=0.7,*;q=0.3", 
        "connection": "keep-alive", 
        "referer": "https://mail.google.com/mail/?ui=2&view=bsp&ver=ohhl4rw8mbn4", 
        "cookie": "GXSP=S; GX=DQAAAKAAAACWL7JAPh93xDed9s0hJ7OBtzX7YITwhj-_bxdDl5MIXHH63NzEW_QsiVVWnjuX2zS6J2HY-ZqiB1ttGrELWjUz-0Bl6rpkiyRv-f2y2xTu2PAaw5VgE55sLjE6MVS_S3RbLD1oCA21QqCd6YgEMtu3yJ8GdRTd_C11HffhBchREp1yAqLkvAmzdwxzO0Uglt6N9MqfjUv736354T-7b_zk; gmailchat=chrome.record.playback@gmail.com/287506; GMAIL_STAT_383=/S:v=2&a=i&ev=tl&t=1183&e=m%3D0%2Cr%3D132%2Cj%3D143%2Cjl%3D576%2Cs%3D597%2Ci%3D803&r=1&rn=29&mn=tnt%3A120&mg=tsr%3An&ai=mail%3Ai.383.0.3; GMAIL_IMP=v*2%2Fed-ex%2Fjsnc%2Fbf-i%2Fd*0*0%2Fl-nv!%5Ei; NID=33=Q8YOTm040cX43J0ziZ_J8JFF-yed7OqxGs8U400WonyYkwj2EMIW9iM6he8WXFrLx7fpjTIOMwAZMd1acEiRiEhisiktZJJWOmCCzC_JvyoGZDmK5_RNUcB16Dzn75ZM; PREF=ID=c9a5d1cf1b0a06a4:U=12b4c458efd9fb10:TM=1270718561:LM=1270718582:GM=1:S=e1gS8-kLqBDTJncY; rememberme=true; SID=DQAAAKAAAAA3AwjciByqHrI5zcPf0LxEBIIz3xWTonQqNuQNvcM9NrL8Z9WTkwkTXTKuAJG4MPG3ZFdQxi8ISXKLBW5jZE5_b7zEbzIi2YM_796PfHlulMMe6uCmVnWp3Vdj0x4O2OwjeDMkxHF2JS5zUgpeCqeF8gPP9V44YKakFtRP_wOjYvtE6IbQlff61eT3DauT4qc30BOfJJjh_oDPPpo6rnYO; HSID=ATV3juZaZTkJWIFqS; SSID=A-W5xDS9j7T2jJIoW; TZ=-240"
      }
    }, 
    {
      "path": "/mail/rc/?a=af&c=e0ecff&w=3&h=3", 
      "response_file": "008", 
      "method": "GET", 
      "headers": {
        "accept-language": "en-US,en;q=0.8", 
        "host": "mail.google.com", 
        "accept": "*/*", 
        "user-agent": "Mozilla/5.0 (X11; U; Linux x86_64; en-US) AppleWebKit/533.4 (KHTML, like Gecko) Chrome/5.0.375.99 Safari/533.4", 
        "accept-charset": "ISO-8859-1,utf-8;q=0.7,*;q=0.3", 
        "connection": "keep-alive", 
        "referer": "https://mail.google.com/mail/?ui=2&view=bsp&ver=ohhl4rw8mbn4", 
        "cookie": "GXSP=S; GX=DQAAAKAAAACWL7JAPh93xDed9s0hJ7OBtzX7YITwhj-_bxdDl5MIXHH63NzEW_QsiVVWnjuX2zS6J2HY-ZqiB1ttGrELWjUz-0Bl6rpkiyRv-f2y2xTu2PAaw5VgE55sLjE6MVS_S3RbLD1oCA21QqCd6YgEMtu3yJ8GdRTd_C11HffhBchREp1yAqLkvAmzdwxzO0Uglt6N9MqfjUv736354T-7b_zk; gmailchat=chrome.record.playback@gmail.com/287506; GMAIL_STAT_383=/S:v=2&a=i&ev=tl&t=1183&e=m%3D0%2Cr%3D132%2Cj%3D143%2Cjl%3D576%2Cs%3D597%2Ci%3D803&r=1&rn=29&mn=tnt%3A120&mg=tsr%3An&ai=mail%3Ai.383.0.3; GMAIL_IMP=v*2%2Fed-ex%2Fjsnc%2Fbf-i%2Fd*0*0%2Fl-nv!%5Ei; NID=33=Q8YOTm040cX43J0ziZ_J8JFF-yed7OqxGs8U400WonyYkwj2EMIW9iM6he8WXFrLx7fpjTIOMwAZMd1acEiRiEhisiktZJJWOmCCzC_JvyoGZDmK5_RNUcB16Dzn75ZM; PREF=ID=c9a5d1cf1b0a06a4:U=12b4c458efd9fb10:TM=1270718561:LM=1270718582:GM=1:S=e1gS8-kLqBDTJncY; rememberme=true; SID=DQAAAKAAAAA3AwjciByqHrI5zcPf0LxEBIIz3xWTonQqNuQNvcM9NrL8Z9WTkwkTXTKuAJG4MPG3ZFdQxi8ISXKLBW5jZE5_b7zEbzIi2YM_796PfHlulMMe6uCmVnWp3Vdj0x4O2OwjeDMkxHF2JS5zUgpeCqeF8gPP9V44YKakFtRP_wOjYvtE6IbQlff61eT3DauT4qc30BOfJJjh_oDPPpo6rnYO; HSID=ATV3juZaZTkJWIFqS; SSID=A-W5xDS9j7T2jJIoW; TZ=-240"
      }
    }, 
    {
      "path": "/mail/images/2/5/logo1.png", 
      "response_file": "009", 
      "method": "GET", 
      "headers": {
        "accept-language": "en-US,en;q=0.8", 
        "host": "mail.google.com", 
        "accept": "*/*", 
        "user-agent": "Mozilla/5.0 (X11; U; Linux x86_64; en-US) AppleWebKit/533.4 (KHTML, like Gecko) Chrome/5.0.375.99 Safari/533.4", 
        "accept-charset": "ISO-8859-1,utf-8;q=0.7,*;q=0.3", 
        "connection": "keep-alive", 
        "referer": "https://mail.google.com/mail/?ui=2&view=bsp&ver=ohhl4rw8mbn4", 
        "cookie": "GXSP=S; GX=DQAAAKAAAACWL7JAPh93xDed9s0hJ7OBtzX7YITwhj-_bxdDl5MIXHH63NzEW_QsiVVWnjuX2zS6J2HY-ZqiB1ttGrELWjUz-0Bl6rpkiyRv-f2y2xTu2PAaw5VgE55sLjE6MVS_S3RbLD1oCA21QqCd6YgEMtu3yJ8GdRTd_C11HffhBchREp1yAqLkvAmzdwxzO0Uglt6N9MqfjUv736354T-7b_zk; gmailchat=chrome.record.playback@gmail.com/287506; GMAIL_STAT_383=/S:v=2&a=i&ev=tl&t=1183&e=m%3D0%2Cr%3D132%2Cj%3D143%2Cjl%3D576%2Cs%3D597%2Ci%3D803&r=1&rn=29&mn=tnt%3A120&mg=tsr%3An&ai=mail%3Ai.383.0.3; GMAIL_IMP=v*2%2Fed-ex%2Fjsnc%2Fbf-i%2Fd*0*0%2Fl-nv!%5Ei; NID=33=Q8YOTm040cX43J0ziZ_J8JFF-yed7OqxGs8U400WonyYkwj2EMIW9iM6he8WXFrLx7fpjTIOMwAZMd1acEiRiEhisiktZJJWOmCCzC_JvyoGZDmK5_RNUcB16Dzn75ZM; PREF=ID=c9a5d1cf1b0a06a4:U=12b4c458efd9fb10:TM=1270718561:LM=1270718582:GM=1:S=e1gS8-kLqBDTJncY; rememberme=true; SID=DQAAAKAAAAA3AwjciByqHrI5zcPf0LxEBIIz3xWTonQqNuQNvcM9NrL8Z9WTkwkTXTKuAJG4MPG3ZFdQxi8ISXKLBW5jZE5_b7zEbzIi2YM_796PfHlulMMe6uCmVnWp3Vdj0x4O2OwjeDMkxHF2JS5zUgpeCqeF8gPP9V44YKakFtRP_wOjYvtE6IbQlff61eT3DauT4qc30BOfJJjh_oDPPpo6rnYO; HSID=ATV3juZaZTkJWIFqS; SSID=A-W5xDS9j7T2jJIoW; TZ=-240"
      }
    }, 
    {
      "path": "/mail/?ui=2&view=dim&iv=173gelgoht35s&it=ic", 
      "response_file": "010", 
      "method": "GET", 
      "headers": {
        "accept-language": "en-US,en;q=0.8", 
        "host": "mail.google.com", 
        "accept": "*/*", 
        "user-agent": "Mozilla/5.0 (X11; U; Linux x86_64; en-US) AppleWebKit/533.4 (KHTML, like Gecko) Chrome/5.0.375.99 Safari/533.4", 
        "accept-charset": "ISO-8859-1,utf-8;q=0.7,*;q=0.3", 
        "connection": "keep-alive", 
        "referer": "https://mail.google.com/mail/?ui=2&view=bsp&ver=ohhl4rw8mbn4", 
        "cookie": "GXSP=S; GX=DQAAAKAAAACWL7JAPh93xDed9s0hJ7OBtzX7YITwhj-_bxdDl5MIXHH63NzEW_QsiVVWnjuX2zS6J2HY-ZqiB1ttGrELWjUz-0Bl6rpkiyRv-f2y2xTu2PAaw5VgE55sLjE6MVS_S3RbLD1oCA21QqCd6YgEMtu3yJ8GdRTd_C11HffhBchREp1yAqLkvAmzdwxzO0Uglt6N9MqfjUv736354T-7b_zk; gmailchat=chrome.record.playback@gmail.com/287506; GMAIL_STAT_383=/S:v=2&a=i&ev=tl&t=1183&e=m%3D0%2Cr%3D132%2Cj%3D143%2Cjl%3D576%2Cs%3D597%2Ci%3D803&r=1&rn=29&mn=tnt%3A120&mg=tsr%3An&ai=mail%3Ai.383.0.3; GMAIL_IMP=v*2%2Fed-ex%2Fjsnc%2Fbf-i%2Fd*0*0%2Fl-nv!%5Ei; NID=33=Q8YOTm040cX43J0ziZ_J8JFF-yed7OqxGs8U400WonyYkwj2EMIW9iM6he8WXFrLx7fpjTIOMwAZMd1acEiRiEhisiktZJJWOmCCzC_JvyoGZDmK5_RNUcB16Dzn75ZM; PREF=ID=c9a5d1cf1b0a06a4:U=12b4c458efd9fb10:TM=1270718561:LM=1270718582:GM=1:S=e1gS8-kLqBDTJncY; rememberme=true; SID=DQAAAKAAAAA3AwjciByqHrI5zcPf0LxEBIIz3xWTonQqNuQNvcM9NrL8Z9WTkwkTXTKuAJG4MPG3ZFdQxi8ISXKLBW5jZE5_b7zEbzIi2YM_796PfHlulMMe6uCmVnWp3Vdj0x4O2OwjeDMkxHF2JS5zUgpeCqeF8gPP9V44YKakFtRP_wOjYvtE6IbQlff61eT3DauT4qc30BOfJJjh_oDPPpo6rnYO; HSID=ATV3juZaZTkJWIFqS; SSID=A-W5xDS9j7T2jJIoW; TZ=-240"
      }
    }, 
    {
      "path": "/mail/images/2/grippy.png", 
      "response_file": "011", 
      "method": "GET", 
      "headers": {
        "accept-language": "en-US,en;q=0.8", 
        "host": "mail.google.com", 
        "accept": "*/*", 
        "user-agent": "Mozilla/5.0 (X11; U; Linux x86_64; en-US) AppleWebKit/533.4 (KHTML, like Gecko) Chrome/5.0.375.99 Safari/533.4", 
        "accept-charset": "ISO-8859-1,utf-8;q=0.7,*;q=0.3", 
        "connection": "keep-alive", 
        "referer": "https://mail.google.com/mail/?ui=2&view=bsp&ver=ohhl4rw8mbn4", 
        "cookie": "GXSP=S; GX=DQAAAKAAAACWL7JAPh93xDed9s0hJ7OBtzX7YITwhj-_bxdDl5MIXHH63NzEW_QsiVVWnjuX2zS6J2HY-ZqiB1ttGrELWjUz-0Bl6rpkiyRv-f2y2xTu2PAaw5VgE55sLjE6MVS_S3RbLD1oCA21QqCd6YgEMtu3yJ8GdRTd_C11HffhBchREp1yAqLkvAmzdwxzO0Uglt6N9MqfjUv736354T-7b_zk; gmailchat=chrome.record.playback@gmail.com/287506; GMAIL_STAT_383=/S:v=2&a=i&ev=tl&t=1183&e=m%3D0%2Cr%3D132%2Cj%3D143%2Cjl%3D576%2Cs%3D597%2Ci%3D803&r=1&rn=29&mn=tnt%3A120&mg=tsr%3An&ai=mail%3Ai.383.0.3; GMAIL_IMP=v*2%2Fed-ex%2Fjsnc%2Fbf-i%2Fd*0*0%2Fl-nv!%5Ei; NID=33=Q8YOTm040cX43J0ziZ_J8JFF-yed7OqxGs8U400WonyYkwj2EMIW9iM6he8WXFrLx7fpjTIOMwAZMd1acEiRiEhisiktZJJWOmCCzC_JvyoGZDmK5_RNUcB16Dzn75ZM; PREF=ID=c9a5d1cf1b0a06a4:U=12b4c458efd9fb10:TM=1270718561:LM=1270718582:GM=1:S=e1gS8-kLqBDTJncY; rememberme=true; SID=DQAAAKAAAAA3AwjciByqHrI5zcPf0LxEBIIz3xWTonQqNuQNvcM9NrL8Z9WTkwkTXTKuAJG4MPG3ZFdQxi8ISXKLBW5jZE5_b7zEbzIi2YM_796PfHlulMMe6uCmVnWp3Vdj0x4O2OwjeDMkxHF2JS5zUgpeCqeF8gPP9V44YKakFtRP_wOjYvtE6IbQlff61eT3DauT4qc30BOfJJjh_oDPPpo6rnYO; HSID=ATV3juZaZTkJWIFqS; SSID=A-W5xDS9j7T2jJIoW; TZ=-240"
      }
    }, 
    {
      "path": "/mail/?ui=2&ik=002749575f&view=ad&aav=2&ak=QLb-xwzaN47w3ecs", 
      "response_file": "012", 
      "method": "GET", 
      "headers": {
        "accept-language": "en-US,en;q=0.8", 
        "host": "mail.google.com", 
        "accept": "*/*", 
        "user-agent": "Mozilla/5.0 (X11; U; Linux x86_64; en-US) AppleWebKit/533.4 (KHTML, like Gecko) Chrome/5.0.375.99 Safari/533.4", 
        "accept-charset": "ISO-8859-1,utf-8;q=0.7,*;q=0.3", 
        "connection": "keep-alive", 
        "referer": "https://mail.google.com/mail/?shva=1", 
        "cookie": "GXSP=S; GX=DQAAAKAAAACWL7JAPh93xDed9s0hJ7OBtzX7YITwhj-_bxdDl5MIXHH63NzEW_QsiVVWnjuX2zS6J2HY-ZqiB1ttGrELWjUz-0Bl6rpkiyRv-f2y2xTu2PAaw5VgE55sLjE6MVS_S3RbLD1oCA21QqCd6YgEMtu3yJ8GdRTd_C11HffhBchREp1yAqLkvAmzdwxzO0Uglt6N9MqfjUv736354T-7b_zk; gmailchat=chrome.record.playback@gmail.com/287506; GMAIL_STAT_383=/S:v=2&a=i&ev=tl&t=1183&e=m%3D0%2Cr%3D132%2Cj%3D143%2Cjl%3D576%2Cs%3D597%2Ci%3D803&r=1&rn=29&mn=tnt%3A120&mg=tsr%3An&ai=mail%3Ai.383.0.3; GMAIL_IMP=v*2%2Fed-ex%2Fjsnc%2Fbf-i%2Fd*0*0%2Fl-nv!%5Ei; NID=33=Q8YOTm040cX43J0ziZ_J8JFF-yed7OqxGs8U400WonyYkwj2EMIW9iM6he8WXFrLx7fpjTIOMwAZMd1acEiRiEhisiktZJJWOmCCzC_JvyoGZDmK5_RNUcB16Dzn75ZM; PREF=ID=c9a5d1cf1b0a06a4:U=12b4c458efd9fb10:TM=1270718561:LM=1270718582:GM=1:S=e1gS8-kLqBDTJncY; rememberme=true; SID=DQAAAKAAAAA3AwjciByqHrI5zcPf0LxEBIIz3xWTonQqNuQNvcM9NrL8Z9WTkwkTXTKuAJG4MPG3ZFdQxi8ISXKLBW5jZE5_b7zEbzIi2YM_796PfHlulMMe6uCmVnWp3Vdj0x4O2OwjeDMkxHF2JS5zUgpeCqeF8gPP9V44YKakFtRP_wOjYvtE6IbQlff61eT3DauT4qc30BOfJJjh_oDPPpo6rnYO; HSID=ATV3juZaZTkJWIFqS; SSID=A-W5xDS9j7T2jJIoW; TZ=-240"
      }
    }, 
    {
      "path": "/mail/rc/?a=af&c=ccc&w=4&h=4", 
      "response_file": "013", 
      "method": "GET", 
      "headers": {
        "accept-language": "en-US,en;q=0.8", 
        "host": "mail.google.com", 
        "accept": "*/*", 
        "user-agent": "Mozilla/5.0 (X11; U; Linux x86_64; en-US) AppleWebKit/533.4 (KHTML, like Gecko) Chrome/5.0.375.99 Safari/533.4", 
        "accept-charset": "ISO-8859-1,utf-8;q=0.7,*;q=0.3", 
        "connection": "keep-alive", 
        "referer": "https://mail.google.com/mail/?ui=2&view=bsp&ver=ohhl4rw8mbn4", 
        "cookie": "GXSP=S; GX=DQAAAKAAAACWL7JAPh93xDed9s0hJ7OBtzX7YITwhj-_bxdDl5MIXHH63NzEW_QsiVVWnjuX2zS6J2HY-ZqiB1ttGrELWjUz-0Bl6rpkiyRv-f2y2xTu2PAaw5VgE55sLjE6MVS_S3RbLD1oCA21QqCd6YgEMtu3yJ8GdRTd_C11HffhBchREp1yAqLkvAmzdwxzO0Uglt6N9MqfjUv736354T-7b_zk; gmailchat=chrome.record.playback@gmail.com/287506; GMAIL_STAT_383=/S:v=2&a=i&ev=tl&t=1183&e=m%3D0%2Cr%3D132%2Cj%3D143%2Cjl%3D576%2Cs%3D597%2Ci%3D803&r=1&rn=29&mn=tnt%3A120&mg=tsr%3An&ai=mail%3Ai.383.0.3; GMAIL_IMP=v*2%2Fed-ex%2Fjsnc%2Fbf-i%2Fd*0*0%2Fl-nv!%5Ei; NID=33=Q8YOTm040cX43J0ziZ_J8JFF-yed7OqxGs8U400WonyYkwj2EMIW9iM6he8WXFrLx7fpjTIOMwAZMd1acEiRiEhisiktZJJWOmCCzC_JvyoGZDmK5_RNUcB16Dzn75ZM; PREF=ID=c9a5d1cf1b0a06a4:U=12b4c458efd9fb10:TM=1270718561:LM=1270718582:GM=1:S=e1gS8-kLqBDTJncY; rememberme=true; SID=DQAAAKAAAAA3AwjciByqHrI5zcPf0LxEBIIz3xWTonQqNuQNvcM9NrL8Z9WTkwkTXTKuAJG4MPG3ZFdQxi8ISXKLBW5jZE5_b7zEbzIi2YM_796PfHlulMMe6uCmVnWp3Vdj0x4O2OwjeDMkxHF2JS5zUgpeCqeF8gPP9V44YKakFtRP_wOjYvtE6IbQlff61eT3DauT4qc30BOfJJjh_oDPPpo6rnYO; HSID=ATV3juZaZTkJWIFqS; SSID=A-W5xDS9j7T2jJIoW; TZ=-240"
      }
    }, 
    {
      "path": "/mail/?ui=2&view=dim&iv=51lmfvsj5d60&it=vi", 
      "response_file": "014", 
      "method": "GET", 
      "headers": {
        "accept-language": "en-US,en;q=0.8", 
        "host": "mail.google.com", 
        "accept": "*/*", 
        "user-agent": "Mozilla/5.0 (X11; U; Linux x86_64; en-US) AppleWebKit/533.4 (KHTML, like Gecko) Chrome/5.0.375.99 Safari/533.4", 
        "accept-charset": "ISO-8859-1,utf-8;q=0.7,*;q=0.3", 
        "connection": "keep-alive", 
        "referer": "https://mail.google.com/mail/?ui=2&view=bsp&ver=ohhl4rw8mbn4", 
        "cookie": "GXSP=S; GX=DQAAAKAAAACWL7JAPh93xDed9s0hJ7OBtzX7YITwhj-_bxdDl5MIXHH63NzEW_QsiVVWnjuX2zS6J2HY-ZqiB1ttGrELWjUz-0Bl6rpkiyRv-f2y2xTu2PAaw5VgE55sLjE6MVS_S3RbLD1oCA21QqCd6YgEMtu3yJ8GdRTd_C11HffhBchREp1yAqLkvAmzdwxzO0Uglt6N9MqfjUv736354T-7b_zk; gmailchat=chrome.record.playback@gmail.com/287506; GMAIL_STAT_383=/S:v=2&a=i&ev=tl&t=1183&e=m%3D0%2Cr%3D132%2Cj%3D143%2Cjl%3D576%2Cs%3D597%2Ci%3D803&r=1&rn=29&mn=tnt%3A120&mg=tsr%3An&ai=mail%3Ai.383.0.3; GMAIL_IMP=v*2%2Fed-ex%2Fjsnc%2Fbf-i%2Fd*0*0%2Fl-nv!%5Ei; NID=33=Q8YOTm040cX43J0ziZ_J8JFF-yed7OqxGs8U400WonyYkwj2EMIW9iM6he8WXFrLx7fpjTIOMwAZMd1acEiRiEhisiktZJJWOmCCzC_JvyoGZDmK5_RNUcB16Dzn75ZM; PREF=ID=c9a5d1cf1b0a06a4:U=12b4c458efd9fb10:TM=1270718561:LM=1270718582:GM=1:S=e1gS8-kLqBDTJncY; rememberme=true; SID=DQAAAKAAAAA3AwjciByqHrI5zcPf0LxEBIIz3xWTonQqNuQNvcM9NrL8Z9WTkwkTXTKuAJG4MPG3ZFdQxi8ISXKLBW5jZE5_b7zEbzIi2YM_796PfHlulMMe6uCmVnWp3Vdj0x4O2OwjeDMkxHF2JS5zUgpeCqeF8gPP9V44YKakFtRP_wOjYvtE6IbQlff61eT3DauT4qc30BOfJJjh_oDPPpo6rnYO; HSID=ATV3juZaZTkJWIFqS; SSID=A-W5xDS9j7T2jJIoW; TZ=-240"
      }
    }, 
    {
      "path": "/mail/?ui=2&view=jsm&name=sy256%2Csy257%2Csy242%2Csy181%2Csy243%2Csy247%2Csy259%2Csy260%2Cga%2Cgp%2Cgn&ver=msMvpc35A6Q.en.&am=!5unIWCRtioyxxX0CEfMmgmqP3saW8vf3U0c-Ancf0xClXUmWcg", 
      "response_file": "015", 
      "method": "GET", 
      "headers": {
        "accept-language": "en-US,en;q=0.8", 
        "host": "mail.google.com", 
        "accept": "*/*", 
        "user-agent": "Mozilla/5.0 (X11; U; Linux x86_64; en-US) AppleWebKit/533.4 (KHTML, like Gecko) Chrome/5.0.375.99 Safari/533.4", 
        "accept-charset": "ISO-8859-1,utf-8;q=0.7,*;q=0.3", 
        "connection": "keep-alive", 
        "referer": "https://mail.google.com/mail/?shva=1", 
        "cookie": "GXSP=S; GX=DQAAAKAAAACWL7JAPh93xDed9s0hJ7OBtzX7YITwhj-_bxdDl5MIXHH63NzEW_QsiVVWnjuX2zS6J2HY-ZqiB1ttGrELWjUz-0Bl6rpkiyRv-f2y2xTu2PAaw5VgE55sLjE6MVS_S3RbLD1oCA21QqCd6YgEMtu3yJ8GdRTd_C11HffhBchREp1yAqLkvAmzdwxzO0Uglt6N9MqfjUv736354T-7b_zk; gmailchat=chrome.record.playback@gmail.com/287506; GMAIL_STAT_383=/S:v=2&a=i&ev=tl&t=1183&e=m%3D0%2Cr%3D132%2Cj%3D143%2Cjl%3D576%2Cs%3D597%2Ci%3D803&r=1&rn=29&mn=tnt%3A120&mg=tsr%3An&ai=mail%3Ai.383.0.3; GMAIL_IMP=v*2%2Fed-ex%2Fjsnc%2Fbf-i%2Fd*0*0%2Fl-nv!%5Ei; NID=33=Q8YOTm040cX43J0ziZ_J8JFF-yed7OqxGs8U400WonyYkwj2EMIW9iM6he8WXFrLx7fpjTIOMwAZMd1acEiRiEhisiktZJJWOmCCzC_JvyoGZDmK5_RNUcB16Dzn75ZM; PREF=ID=c9a5d1cf1b0a06a4:U=12b4c458efd9fb10:TM=1270718561:LM=1270718582:GM=1:S=e1gS8-kLqBDTJncY; rememberme=true; SID=DQAAAKAAAAA3AwjciByqHrI5zcPf0LxEBIIz3xWTonQqNuQNvcM9NrL8Z9WTkwkTXTKuAJG4MPG3ZFdQxi8ISXKLBW5jZE5_b7zEbzIi2YM_796PfHlulMMe6uCmVnWp3Vdj0x4O2OwjeDMkxHF2JS5zUgpeCqeF8gPP9V44YKakFtRP_wOjYvtE6IbQlff61eT3DauT4qc30BOfJJjh_oDPPpo6rnYO; HSID=ATV3juZaZTkJWIFqS; SSID=A-W5xDS9j7T2jJIoW; TZ=-240"
      }
    }, 
    {
      "path": "/mail/?ui=2&ik=002749575f&rid=mail%3Ai.384.0.1&view=cv&th=12850b1f3f729f38&th=1281bdebe5342e35&th=1281b8f29168cf9e&th=128169996d8ed78d&th=1281902f46de81f1&prf=1&nsc=1&mb=0&rt=j&search=inbox", 
      "response_file": "016", 
      "method": "POST", 
      "headers": {
        "origin": "https://mail.google.com", 
        "content-length": "0", 
        "accept-language": "en-US,en;q=0.8", 
        "host": "mail.google.com", 
        "accept": "*/*", 
        "user-agent": "Mozilla/5.0 (X11; U; Linux x86_64; en-US) AppleWebKit/533.4 (KHTML, like Gecko) Chrome/5.0.375.99 Safari/533.4", 
        "accept-charset": "ISO-8859-1,utf-8;q=0.7,*;q=0.3", 
        "connection": "keep-alive", 
        "referer": "https://mail.google.com/mail/?shva=1", 
        "x-same-domain": "1", 
        "cookie": "GXSP=S; GX=DQAAAKAAAACWL7JAPh93xDed9s0hJ7OBtzX7YITwhj-_bxdDl5MIXHH63NzEW_QsiVVWnjuX2zS6J2HY-ZqiB1ttGrELWjUz-0Bl6rpkiyRv-f2y2xTu2PAaw5VgE55sLjE6MVS_S3RbLD1oCA21QqCd6YgEMtu3yJ8GdRTd_C11HffhBchREp1yAqLkvAmzdwxzO0Uglt6N9MqfjUv736354T-7b_zk; gmailchat=chrome.record.playback@gmail.com/287506; GMAIL_STAT_383=/S:v=2&a=i&ev=tl&t=1183&e=m%3D0%2Cr%3D132%2Cj%3D143%2Cjl%3D576%2Cs%3D597%2Ci%3D803&r=1&rn=29&mn=tnt%3A120&mg=tsr%3An&ai=mail%3Ai.383.0.3; GMAIL_IMP=v*2%2Fed-ex%2Fjsnc%2Fbf-i%2Fd*0*0%2Fl-nv!%5Ei; NID=33=Q8YOTm040cX43J0ziZ_J8JFF-yed7OqxGs8U400WonyYkwj2EMIW9iM6he8WXFrLx7fpjTIOMwAZMd1acEiRiEhisiktZJJWOmCCzC_JvyoGZDmK5_RNUcB16Dzn75ZM; PREF=ID=c9a5d1cf1b0a06a4:U=12b4c458efd9fb10:TM=1270718561:LM=1270718582:GM=1:S=e1gS8-kLqBDTJncY; rememberme=true; SID=DQAAAKAAAAA3AwjciByqHrI5zcPf0LxEBIIz3xWTonQqNuQNvcM9NrL8Z9WTkwkTXTKuAJG4MPG3ZFdQxi8ISXKLBW5jZE5_b7zEbzIi2YM_796PfHlulMMe6uCmVnWp3Vdj0x4O2OwjeDMkxHF2JS5zUgpeCqeF8gPP9V44YKakFtRP_wOjYvtE6IbQlff61eT3DauT4qc30BOfJJjh_oDPPpo6rnYO; HSID=ATV3juZaZTkJWIFqS; SSID=A-W5xDS9j7T2jJIoW; TZ=-240", 
        "content-type": "application/x-www-form-urlencoded;charset=utf-8"
      }
    }, 
    {
      "path": "/mail/?ui=2&view=jsm&name=lb&ver=msMvpc35A6Q.en.&am=!5unIWCRtioyxxX0CEfMmgmqP3saW8vf3U0c-Ancf0xClXUmWcg", 
      "response_file": "017", 
      "method": "GET", 
      "headers": {
        "accept-language": "en-US,en;q=0.8", 
        "host": "mail.google.com", 
        "accept": "*/*", 
        "user-agent": "Mozilla/5.0 (X11; U; Linux x86_64; en-US) AppleWebKit/533.4 (KHTML, like Gecko) Chrome/5.0.375.99 Safari/533.4", 
        "accept-charset": "ISO-8859-1,utf-8;q=0.7,*;q=0.3", 
        "connection": "keep-alive", 
        "referer": "https://mail.google.com/mail/?shva=1", 
        "cookie": "GXSP=S; GX=DQAAAKAAAACWL7JAPh93xDed9s0hJ7OBtzX7YITwhj-_bxdDl5MIXHH63NzEW_QsiVVWnjuX2zS6J2HY-ZqiB1ttGrELWjUz-0Bl6rpkiyRv-f2y2xTu2PAaw5VgE55sLjE6MVS_S3RbLD1oCA21QqCd6YgEMtu3yJ8GdRTd_C11HffhBchREp1yAqLkvAmzdwxzO0Uglt6N9MqfjUv736354T-7b_zk; gmailchat=chrome.record.playback@gmail.com/287506; GMAIL_STAT_383=/S:v=2&a=i&ev=tl&t=1183&e=m%3D0%2Cr%3D132%2Cj%3D143%2Cjl%3D576%2Cs%3D597%2Ci%3D803&r=1&rn=29&mn=tnt%3A120&mg=tsr%3An&ai=mail%3Ai.383.0.3; S=gmail=znySPliPmYTPI98wp9P24w:gmproxy=sgmLK2ssXhM8-54CShBPiQ; GMAIL_STAT_384=/S:v=2&a=i&ev=tl&t=4374&e=m%3D0%2Cr%3D294%2Cj%3D2079%2Cjl%3D2519%2Cs%3D3448%2Ci%3D3688&r=1&rn=27&mn=tnt%3A120&mg=tsr%3An&ai=mail%3Ai.384.0.2; GMAIL_IMP=v*2%2Fad-p-tl_i%2Ftl-si-inbox*158%2Fad-l-tl_i%2Fed-su%2Fad-ra-tl_i%2Fad-dr-tl_i-f*1%2Fad-v-tl_i*709%2Fad-ds-tl_i-f*1%2Ffn-v-ad%2Fed-ex%2Fjsnc%2Fbf-i%2Fd*0*0%2Fl-nv!%5Ei; NID=33=Q8YOTm040cX43J0ziZ_J8JFF-yed7OqxGs8U400WonyYkwj2EMIW9iM6he8WXFrLx7fpjTIOMwAZMd1acEiRiEhisiktZJJWOmCCzC_JvyoGZDmK5_RNUcB16Dzn75ZM; PREF=ID=c9a5d1cf1b0a06a4:U=12b4c458efd9fb10:TM=1270718561:LM=1270718582:GM=1:S=e1gS8-kLqBDTJncY; rememberme=true; SID=DQAAAKAAAAA3AwjciByqHrI5zcPf0LxEBIIz3xWTonQqNuQNvcM9NrL8Z9WTkwkTXTKuAJG4MPG3ZFdQxi8ISXKLBW5jZE5_b7zEbzIi2YM_796PfHlulMMe6uCmVnWp3Vdj0x4O2OwjeDMkxHF2JS5zUgpeCqeF8gPP9V44YKakFtRP_wOjYvtE6IbQlff61eT3DauT4qc30BOfJJjh_oDPPpo6rnYO; HSID=ATV3juZaZTkJWIFqS; SSID=A-W5xDS9j7T2jJIoW; TZ=-240"
      }
    }, 
    {
      "path": "/mail/?ui=2&ik=002749575f&rid=384..&view=gdv&tz=270176_40_40__40_&mb=0&rt=j", 
      "response_file": "018", 
      "method": "POST", 
      "headers": {
        "origin": "https://mail.google.com", 
        "content-length": "0", 
        "accept-language": "en-US,en;q=0.8", 
        "host": "mail.google.com", 
        "accept": "*/*", 
        "user-agent": "Mozilla/5.0 (X11; U; Linux x86_64; en-US) AppleWebKit/533.4 (KHTML, like Gecko) Chrome/5.0.375.99 Safari/533.4", 
        "accept-charset": "ISO-8859-1,utf-8;q=0.7,*;q=0.3", 
        "connection": "keep-alive", 
        "referer": "https://mail.google.com/mail/?shva=1", 
        "x-same-domain": "1", 
        "cookie": "GXSP=S; GX=DQAAAKAAAACWL7JAPh93xDed9s0hJ7OBtzX7YITwhj-_bxdDl5MIXHH63NzEW_QsiVVWnjuX2zS6J2HY-ZqiB1ttGrELWjUz-0Bl6rpkiyRv-f2y2xTu2PAaw5VgE55sLjE6MVS_S3RbLD1oCA21QqCd6YgEMtu3yJ8GdRTd_C11HffhBchREp1yAqLkvAmzdwxzO0Uglt6N9MqfjUv736354T-7b_zk; gmailchat=chrome.record.playback@gmail.com/287506; GMAIL_STAT_383=/S:v=2&a=i&ev=tl&t=1183&e=m%3D0%2Cr%3D132%2Cj%3D143%2Cjl%3D576%2Cs%3D597%2Ci%3D803&r=1&rn=29&mn=tnt%3A120&mg=tsr%3An&ai=mail%3Ai.383.0.3; S=gmail=znySPliPmYTPI98wp9P24w:gmproxy=sgmLK2ssXhM8-54CShBPiQ; GMAIL_STAT_384=/S:v=2&a=i&ev=tl&t=4374&e=m%3D0%2Cr%3D294%2Cj%3D2079%2Cjl%3D2519%2Cs%3D3448%2Ci%3D3688&r=1&rn=27&mn=tnt%3A120&mg=tsr%3An&ai=mail%3Ai.384.0.2; GMAIL_IMP=v*2%2Fad-p-tl_i%2Ftl-si-inbox*158%2Fad-l-tl_i%2Fed-su%2Fad-ra-tl_i%2Fad-dr-tl_i-f*1%2Fad-v-tl_i*709%2Fad-ds-tl_i-f*1%2Ffn-v-ad%2Fed-ex%2Fjsnc%2Fbf-i%2Fd*0*0%2Fl-nv!%5Ei; NID=33=Q8YOTm040cX43J0ziZ_J8JFF-yed7OqxGs8U400WonyYkwj2EMIW9iM6he8WXFrLx7fpjTIOMwAZMd1acEiRiEhisiktZJJWOmCCzC_JvyoGZDmK5_RNUcB16Dzn75ZM; PREF=ID=c9a5d1cf1b0a06a4:U=12b4c458efd9fb10:TM=1270718561:LM=1270718582:GM=1:S=e1gS8-kLqBDTJncY; rememberme=true; SID=DQAAAKAAAAA3AwjciByqHrI5zcPf0LxEBIIz3xWTonQqNuQNvcM9NrL8Z9WTkwkTXTKuAJG4MPG3ZFdQxi8ISXKLBW5jZE5_b7zEbzIi2YM_796PfHlulMMe6uCmVnWp3Vdj0x4O2OwjeDMkxHF2JS5zUgpeCqeF8gPP9V44YKakFtRP_wOjYvtE6IbQlff61eT3DauT4qc30BOfJJjh_oDPPpo6rnYO; HSID=ATV3juZaZTkJWIFqS; SSID=A-W5xDS9j7T2jJIoW; TZ=-240", 
        "content-type": "application/x-www-form-urlencoded;charset=utf-8"
      }
    }, 
    {
      "path": "/mail/?ui=2&view=jsm&name=sy245%2Csy169%2Cf%2Cld%2Csy250%2Cml&ver=msMvpc35A6Q.en.&am=!5unIWCRtioyxxX0CEfMmgmqP3saW8vf3U0c-Ancf0xClXUmWcg", 
      "response_file": "019", 
      "method": "GET", 
      "headers": {
        "accept-language": "en-US,en;q=0.8", 
        "host": "mail.google.com", 
        "accept": "*/*", 
        "user-agent": "Mozilla/5.0 (X11; U; Linux x86_64; en-US) AppleWebKit/533.4 (KHTML, like Gecko) Chrome/5.0.375.99 Safari/533.4", 
        "accept-charset": "ISO-8859-1,utf-8;q=0.7,*;q=0.3", 
        "connection": "keep-alive", 
        "referer": "https://mail.google.com/mail/?shva=1", 
        "cookie": "GXSP=S; GX=DQAAAKAAAACWL7JAPh93xDed9s0hJ7OBtzX7YITwhj-_bxdDl5MIXHH63NzEW_QsiVVWnjuX2zS6J2HY-ZqiB1ttGrELWjUz-0Bl6rpkiyRv-f2y2xTu2PAaw5VgE55sLjE6MVS_S3RbLD1oCA21QqCd6YgEMtu3yJ8GdRTd_C11HffhBchREp1yAqLkvAmzdwxzO0Uglt6N9MqfjUv736354T-7b_zk; gmailchat=chrome.record.playback@gmail.com/287506; GMAIL_STAT_383=/S:v=2&a=i&ev=tl&t=1183&e=m%3D0%2Cr%3D132%2Cj%3D143%2Cjl%3D576%2Cs%3D597%2Ci%3D803&r=1&rn=29&mn=tnt%3A120&mg=tsr%3An&ai=mail%3Ai.383.0.3; S=gmail=znySPliPmYTPI98wp9P24w:gmproxy=sgmLK2ssXhM8-54CShBPiQ; GMAIL_STAT_384=/S:v=2&a=i&ev=tl&t=4374&e=m%3D0%2Cr%3D294%2Cj%3D2079%2Cjl%3D2519%2Cs%3D3448%2Ci%3D3688&r=1&rn=27&mn=tnt%3A120&mg=tsr%3An&ai=mail%3Ai.384.0.2; NID=33=Q8YOTm040cX43J0ziZ_J8JFF-yed7OqxGs8U400WonyYkwj2EMIW9iM6he8WXFrLx7fpjTIOMwAZMd1acEiRiEhisiktZJJWOmCCzC_JvyoGZDmK5_RNUcB16Dzn75ZM; PREF=ID=c9a5d1cf1b0a06a4:U=12b4c458efd9fb10:TM=1270718561:LM=1270718582:GM=1:S=e1gS8-kLqBDTJncY; rememberme=true; SID=DQAAAKAAAAA3AwjciByqHrI5zcPf0LxEBIIz3xWTonQqNuQNvcM9NrL8Z9WTkwkTXTKuAJG4MPG3ZFdQxi8ISXKLBW5jZE5_b7zEbzIi2YM_796PfHlulMMe6uCmVnWp3Vdj0x4O2OwjeDMkxHF2JS5zUgpeCqeF8gPP9V44YKakFtRP_wOjYvtE6IbQlff61eT3DauT4qc30BOfJJjh_oDPPpo6rnYO; HSID=ATV3juZaZTkJWIFqS; SSID=A-W5xDS9j7T2jJIoW; TZ=-240"
      }
    }, 
    {
      "path": "/mail/?ui=2&ik=002749575f&rid=384..&view=cv&th=1281925fa4835f77&th=1281b8fab0a74e2a&th=128035f6a8f2a1bd&th=128188161b100302&th=1281938fb05e5e1f&prf=1&nsc=1&mb=0&rt=j&search=inbox", 
      "response_file": "020", 
      "method": "POST", 
      "headers": {
        "origin": "https://mail.google.com", 
        "content-length": "0", 
        "accept-language": "en-US,en;q=0.8", 
        "host": "mail.google.com", 
        "accept": "*/*", 
        "user-agent": "Mozilla/5.0 (X11; U; Linux x86_64; en-US) AppleWebKit/533.4 (KHTML, like Gecko) Chrome/5.0.375.99 Safari/533.4", 
        "accept-charset": "ISO-8859-1,utf-8;q=0.7,*;q=0.3", 
        "connection": "keep-alive", 
        "referer": "https://mail.google.com/mail/?shva=1", 
        "x-same-domain": "1", 
        "cookie": "GXSP=S; GX=DQAAAKAAAACWL7JAPh93xDed9s0hJ7OBtzX7YITwhj-_bxdDl5MIXHH63NzEW_QsiVVWnjuX2zS6J2HY-ZqiB1ttGrELWjUz-0Bl6rpkiyRv-f2y2xTu2PAaw5VgE55sLjE6MVS_S3RbLD1oCA21QqCd6YgEMtu3yJ8GdRTd_C11HffhBchREp1yAqLkvAmzdwxzO0Uglt6N9MqfjUv736354T-7b_zk; gmailchat=chrome.record.playback@gmail.com/287506; GMAIL_STAT_383=/S:v=2&a=i&ev=tl&t=1183&e=m%3D0%2Cr%3D132%2Cj%3D143%2Cjl%3D576%2Cs%3D597%2Ci%3D803&r=1&rn=29&mn=tnt%3A120&mg=tsr%3An&ai=mail%3Ai.383.0.3; S=gmail=znySPliPmYTPI98wp9P24w:gmproxy=sgmLK2ssXhM8-54CShBPiQ; GMAIL_STAT_384=/S:v=2&a=i&ev=tl&t=4374&e=m%3D0%2Cr%3D294%2Cj%3D2079%2Cjl%3D2519%2Cs%3D3448%2Ci%3D3688&r=1&rn=27&mn=tnt%3A120&mg=tsr%3An&ai=mail%3Ai.384.0.2; NID=33=Q8YOTm040cX43J0ziZ_J8JFF-yed7OqxGs8U400WonyYkwj2EMIW9iM6he8WXFrLx7fpjTIOMwAZMd1acEiRiEhisiktZJJWOmCCzC_JvyoGZDmK5_RNUcB16Dzn75ZM; PREF=ID=c9a5d1cf1b0a06a4:U=12b4c458efd9fb10:TM=1270718561:LM=1270718582:GM=1:S=e1gS8-kLqBDTJncY; rememberme=true; SID=DQAAAKAAAAA3AwjciByqHrI5zcPf0LxEBIIz3xWTonQqNuQNvcM9NrL8Z9WTkwkTXTKuAJG4MPG3ZFdQxi8ISXKLBW5jZE5_b7zEbzIi2YM_796PfHlulMMe6uCmVnWp3Vdj0x4O2OwjeDMkxHF2JS5zUgpeCqeF8gPP9V44YKakFtRP_wOjYvtE6IbQlff61eT3DauT4qc30BOfJJjh_oDPPpo6rnYO; HSID=ATV3juZaZTkJWIFqS; SSID=A-W5xDS9j7T2jJIoW; TZ=-240", 
        "content-type": "application/x-www-form-urlencoded;charset=utf-8"
      }
    }, 
    {
      "path": "/mail/?ui=2&ik=002749575f&rid=384..&view=omni&tz=270176_40_40__40_&mb=0&rt=j", 
      "response_file": "021", 
      "method": "POST", 
      "headers": {
        "origin": "https://mail.google.com", 
        "content-length": "0", 
        "accept-language": "en-US,en;q=0.8", 
        "host": "mail.google.com", 
        "accept": "*/*", 
        "user-agent": "Mozilla/5.0 (X11; U; Linux x86_64; en-US) AppleWebKit/533.4 (KHTML, like Gecko) Chrome/5.0.375.99 Safari/533.4", 
        "accept-charset": "ISO-8859-1,utf-8;q=0.7,*;q=0.3", 
        "connection": "keep-alive", 
        "referer": "https://mail.google.com/mail/?shva=1", 
        "x-same-domain": "1", 
        "cookie": "GXSP=S; GX=DQAAAKAAAACWL7JAPh93xDed9s0hJ7OBtzX7YITwhj-_bxdDl5MIXHH63NzEW_QsiVVWnjuX2zS6J2HY-ZqiB1ttGrELWjUz-0Bl6rpkiyRv-f2y2xTu2PAaw5VgE55sLjE6MVS_S3RbLD1oCA21QqCd6YgEMtu3yJ8GdRTd_C11HffhBchREp1yAqLkvAmzdwxzO0Uglt6N9MqfjUv736354T-7b_zk; gmailchat=chrome.record.playback@gmail.com/287506; GMAIL_STAT_383=/S:v=2&a=i&ev=tl&t=1183&e=m%3D0%2Cr%3D132%2Cj%3D143%2Cjl%3D576%2Cs%3D597%2Ci%3D803&r=1&rn=29&mn=tnt%3A120&mg=tsr%3An&ai=mail%3Ai.383.0.3; S=gmail=znySPliPmYTPI98wp9P24w:gmproxy=sgmLK2ssXhM8-54CShBPiQ; GMAIL_STAT_384=/S:v=2&a=i&ev=tl&t=4374&e=m%3D0%2Cr%3D294%2Cj%3D2079%2Cjl%3D2519%2Cs%3D3448%2Ci%3D3688&r=1&rn=27&mn=tnt%3A120&mg=tsr%3An&ai=mail%3Ai.384.0.2; GMAIL_IMP=v*2%2Fpf-s*3259; NID=33=Q8YOTm040cX43J0ziZ_J8JFF-yed7OqxGs8U400WonyYkwj2EMIW9iM6he8WXFrLx7fpjTIOMwAZMd1acEiRiEhisiktZJJWOmCCzC_JvyoGZDmK5_RNUcB16Dzn75ZM; PREF=ID=c9a5d1cf1b0a06a4:U=12b4c458efd9fb10:TM=1270718561:LM=1270718582:GM=1:S=e1gS8-kLqBDTJncY; rememberme=true; SID=DQAAAKAAAAA3AwjciByqHrI5zcPf0LxEBIIz3xWTonQqNuQNvcM9NrL8Z9WTkwkTXTKuAJG4MPG3ZFdQxi8ISXKLBW5jZE5_b7zEbzIi2YM_796PfHlulMMe6uCmVnWp3Vdj0x4O2OwjeDMkxHF2JS5zUgpeCqeF8gPP9V44YKakFtRP_wOjYvtE6IbQlff61eT3DauT4qc30BOfJJjh_oDPPpo6rnYO; HSID=ATV3juZaZTkJWIFqS; SSID=A-W5xDS9j7T2jJIoW; TZ=-240", 
        "content-type": "application/x-www-form-urlencoded;charset=utf-8"
      }
    }, 
    {
      "path": "/mail/?ui=2&view=jsm&name=sy81%2Csy84%2Csy82%2Csy176%2Csy175%2Ccs&ver=msMvpc35A6Q.en.&am=!5unIWCRtioyxxX0CEfMmgmqP3saW8vf3U0c-Ancf0xClXUmWcg", 
      "response_file": "022", 
      "method": "GET", 
      "headers": {
        "accept-language": "en-US,en;q=0.8", 
        "host": "mail.google.com", 
        "accept": "*/*", 
        "user-agent": "Mozilla/5.0 (X11; U; Linux x86_64; en-US) AppleWebKit/533.4 (KHTML, like Gecko) Chrome/5.0.375.99 Safari/533.4", 
        "accept-charset": "ISO-8859-1,utf-8;q=0.7,*;q=0.3", 
        "connection": "keep-alive", 
        "referer": "https://mail.google.com/mail/?shva=1", 
        "cookie": "GXSP=S; GX=DQAAAKAAAACWL7JAPh93xDed9s0hJ7OBtzX7YITwhj-_bxdDl5MIXHH63NzEW_QsiVVWnjuX2zS6J2HY-ZqiB1ttGrELWjUz-0Bl6rpkiyRv-f2y2xTu2PAaw5VgE55sLjE6MVS_S3RbLD1oCA21QqCd6YgEMtu3yJ8GdRTd_C11HffhBchREp1yAqLkvAmzdwxzO0Uglt6N9MqfjUv736354T-7b_zk; gmailchat=chrome.record.playback@gmail.com/287506; GMAIL_STAT_383=/S:v=2&a=i&ev=tl&t=1183&e=m%3D0%2Cr%3D132%2Cj%3D143%2Cjl%3D576%2Cs%3D597%2Ci%3D803&r=1&rn=29&mn=tnt%3A120&mg=tsr%3An&ai=mail%3Ai.383.0.3; S=gmail=znySPliPmYTPI98wp9P24w:gmproxy=sgmLK2ssXhM8-54CShBPiQ; GMAIL_STAT_384=/S:v=2&a=i&ev=tl&t=4374&e=m%3D0%2Cr%3D294%2Cj%3D2079%2Cjl%3D2519%2Cs%3D3448%2Ci%3D3688&r=1&rn=27&mn=tnt%3A120&mg=tsr%3An&ai=mail%3Ai.384.0.2; GMAIL_IMP=v*2%2Fpf-s*3259; NID=33=Q8YOTm040cX43J0ziZ_J8JFF-yed7OqxGs8U400WonyYkwj2EMIW9iM6he8WXFrLx7fpjTIOMwAZMd1acEiRiEhisiktZJJWOmCCzC_JvyoGZDmK5_RNUcB16Dzn75ZM; PREF=ID=c9a5d1cf1b0a06a4:U=12b4c458efd9fb10:TM=1270718561:LM=1270718582:GM=1:S=e1gS8-kLqBDTJncY; rememberme=true; SID=DQAAAKAAAAA3AwjciByqHrI5zcPf0LxEBIIz3xWTonQqNuQNvcM9NrL8Z9WTkwkTXTKuAJG4MPG3ZFdQxi8ISXKLBW5jZE5_b7zEbzIi2YM_796PfHlulMMe6uCmVnWp3Vdj0x4O2OwjeDMkxHF2JS5zUgpeCqeF8gPP9V44YKakFtRP_wOjYvtE6IbQlff61eT3DauT4qc30BOfJJjh_oDPPpo6rnYO; HSID=ATV3juZaZTkJWIFqS; SSID=A-W5xDS9j7T2jJIoW; TZ=-240"
      }
    }, 
    {
      "path": "/mail/?ui=2&ik=002749575f&rid=384..&view=cv&th=1281ad1dfce92ac5&th=128193900eb07803&th=12801677ec549b9f&th=128193949d802770&th=1281a11f3305d63b&prf=1&nsc=1&mb=0&rt=j&search=inbox", 
      "response_file": "023", 
      "method": "POST", 
      "headers": {
        "origin": "https://mail.google.com", 
        "content-length": "0", 
        "accept-language": "en-US,en;q=0.8", 
        "host": "mail.google.com", 
        "accept": "*/*", 
        "user-agent": "Mozilla/5.0 (X11; U; Linux x86_64; en-US) AppleWebKit/533.4 (KHTML, like Gecko) Chrome/5.0.375.99 Safari/533.4", 
        "accept-charset": "ISO-8859-1,utf-8;q=0.7,*;q=0.3", 
        "connection": "keep-alive", 
        "referer": "https://mail.google.com/mail/?shva=1", 
        "x-same-domain": "1", 
        "cookie": "GXSP=S; GX=DQAAAKAAAACWL7JAPh93xDed9s0hJ7OBtzX7YITwhj-_bxdDl5MIXHH63NzEW_QsiVVWnjuX2zS6J2HY-ZqiB1ttGrELWjUz-0Bl6rpkiyRv-f2y2xTu2PAaw5VgE55sLjE6MVS_S3RbLD1oCA21QqCd6YgEMtu3yJ8GdRTd_C11HffhBchREp1yAqLkvAmzdwxzO0Uglt6N9MqfjUv736354T-7b_zk; gmailchat=chrome.record.playback@gmail.com/287506; S=gmail=znySPliPmYTPI98wp9P24w:gmproxy=sgmLK2ssXhM8-54CShBPiQ; GMAIL_STAT_384=/S:v=2&a=i&ev=tl&t=4374&e=m%3D0%2Cr%3D294%2Cj%3D2079%2Cjl%3D2519%2Cs%3D3448%2Ci%3D3688&r=1&rn=27&mn=tnt%3A120&mg=tsr%3An&ai=mail%3Ai.384.0.2; GMAIL_IMP=v*2%2Fpf-s*3259; GMAIL_AT=AF6bupNWpBbLMYXqNN4Oukx0DLEYWlYzVg; NID=33=Q8YOTm040cX43J0ziZ_J8JFF-yed7OqxGs8U400WonyYkwj2EMIW9iM6he8WXFrLx7fpjTIOMwAZMd1acEiRiEhisiktZJJWOmCCzC_JvyoGZDmK5_RNUcB16Dzn75ZM; PREF=ID=c9a5d1cf1b0a06a4:U=12b4c458efd9fb10:TM=1270718561:LM=1270718582:GM=1:S=e1gS8-kLqBDTJncY; rememberme=true; SID=DQAAAKAAAAA3AwjciByqHrI5zcPf0LxEBIIz3xWTonQqNuQNvcM9NrL8Z9WTkwkTXTKuAJG4MPG3ZFdQxi8ISXKLBW5jZE5_b7zEbzIi2YM_796PfHlulMMe6uCmVnWp3Vdj0x4O2OwjeDMkxHF2JS5zUgpeCqeF8gPP9V44YKakFtRP_wOjYvtE6IbQlff61eT3DauT4qc30BOfJJjh_oDPPpo6rnYO; HSID=ATV3juZaZTkJWIFqS; SSID=A-W5xDS9j7T2jJIoW; TZ=-240", 
        "content-type": "application/x-www-form-urlencoded;charset=utf-8"
      }
    }, 
    {
      "path": "/mail/?ui=2&ik=002749575f&rid=384..&view=mic&mb=0&rt=j", 
      "response_file": "024", 
      "method": "POST", 
      "headers": {
        "origin": "https://mail.google.com", 
        "content-length": "0", 
        "accept-language": "en-US,en;q=0.8", 
        "host": "mail.google.com", 
        "accept": "*/*", 
        "user-agent": "Mozilla/5.0 (X11; U; Linux x86_64; en-US) AppleWebKit/533.4 (KHTML, like Gecko) Chrome/5.0.375.99 Safari/533.4", 
        "accept-charset": "ISO-8859-1,utf-8;q=0.7,*;q=0.3", 
        "connection": "keep-alive", 
        "referer": "https://mail.google.com/mail/?shva=1", 
        "x-same-domain": "1", 
        "cookie": "GXSP=S; GX=DQAAAKAAAACWL7JAPh93xDed9s0hJ7OBtzX7YITwhj-_bxdDl5MIXHH63NzEW_QsiVVWnjuX2zS6J2HY-ZqiB1ttGrELWjUz-0Bl6rpkiyRv-f2y2xTu2PAaw5VgE55sLjE6MVS_S3RbLD1oCA21QqCd6YgEMtu3yJ8GdRTd_C11HffhBchREp1yAqLkvAmzdwxzO0Uglt6N9MqfjUv736354T-7b_zk; gmailchat=chrome.record.playback@gmail.com/287506; S=gmail=znySPliPmYTPI98wp9P24w:gmproxy=sgmLK2ssXhM8-54CShBPiQ; GMAIL_STAT_384=/S:v=2&a=i&ev=tl&t=4374&e=m%3D0%2Cr%3D294%2Cj%3D2079%2Cjl%3D2519%2Cs%3D3448%2Ci%3D3688&r=1&rn=27&mn=tnt%3A120&mg=tsr%3An&ai=mail%3Ai.384.0.2; GMAIL_AT=AF6bupNWpBbLMYXqNN4Oukx0DLEYWlYzVg; GMAIL_IMP=v*2%2Fpf-s*4633%2Fpf-s*3259; NID=33=Q8YOTm040cX43J0ziZ_J8JFF-yed7OqxGs8U400WonyYkwj2EMIW9iM6he8WXFrLx7fpjTIOMwAZMd1acEiRiEhisiktZJJWOmCCzC_JvyoGZDmK5_RNUcB16Dzn75ZM; PREF=ID=c9a5d1cf1b0a06a4:U=12b4c458efd9fb10:TM=1270718561:LM=1270718582:GM=1:S=e1gS8-kLqBDTJncY; rememberme=true; SID=DQAAAKAAAAA3AwjciByqHrI5zcPf0LxEBIIz3xWTonQqNuQNvcM9NrL8Z9WTkwkTXTKuAJG4MPG3ZFdQxi8ISXKLBW5jZE5_b7zEbzIi2YM_796PfHlulMMe6uCmVnWp3Vdj0x4O2OwjeDMkxHF2JS5zUgpeCqeF8gPP9V44YKakFtRP_wOjYvtE6IbQlff61eT3DauT4qc30BOfJJjh_oDPPpo6rnYO; HSID=ATV3juZaZTkJWIFqS; SSID=A-W5xDS9j7T2jJIoW; TZ=-240", 
        "content-type": "application/x-www-form-urlencoded;charset=utf-8"
      }
    }, 
    {
      "path": "/mail/?ui=2&ik=002749575f&rid=384..&view=cv&th=128193900eb07803&th=12801677ec549b9f&th=128193949d802770&th=1281a11f3305d63b&th=128102e09f7b9922&prf=1&nsc=1&mb=0&rt=j&search=inbox", 
      "response_file": "025", 
      "method": "POST", 
      "headers": {
        "origin": "https://mail.google.com", 
        "content-length": "0", 
        "accept-language": "en-US,en;q=0.8", 
        "host": "mail.google.com", 
        "accept": "*/*", 
        "user-agent": "Mozilla/5.0 (X11; U; Linux x86_64; en-US) AppleWebKit/533.4 (KHTML, like Gecko) Chrome/5.0.375.99 Safari/533.4", 
        "accept-charset": "ISO-8859-1,utf-8;q=0.7,*;q=0.3", 
        "connection": "keep-alive", 
        "referer": "https://mail.google.com/mail/?shva=1", 
        "x-same-domain": "1", 
        "cookie": "GXSP=S; GX=DQAAAKAAAACWL7JAPh93xDed9s0hJ7OBtzX7YITwhj-_bxdDl5MIXHH63NzEW_QsiVVWnjuX2zS6J2HY-ZqiB1ttGrELWjUz-0Bl6rpkiyRv-f2y2xTu2PAaw5VgE55sLjE6MVS_S3RbLD1oCA21QqCd6YgEMtu3yJ8GdRTd_C11HffhBchREp1yAqLkvAmzdwxzO0Uglt6N9MqfjUv736354T-7b_zk; gmailchat=chrome.record.playback@gmail.com/287506; S=gmail=znySPliPmYTPI98wp9P24w:gmproxy=sgmLK2ssXhM8-54CShBPiQ; GMAIL_AT=AF6bupNWpBbLMYXqNN4Oukx0DLEYWlYzVg; NID=33=Q8YOTm040cX43J0ziZ_J8JFF-yed7OqxGs8U400WonyYkwj2EMIW9iM6he8WXFrLx7fpjTIOMwAZMd1acEiRiEhisiktZJJWOmCCzC_JvyoGZDmK5_RNUcB16Dzn75ZM; PREF=ID=c9a5d1cf1b0a06a4:U=12b4c458efd9fb10:TM=1270718561:LM=1270718582:GM=1:S=e1gS8-kLqBDTJncY; rememberme=true; SID=DQAAAKAAAAA3AwjciByqHrI5zcPf0LxEBIIz3xWTonQqNuQNvcM9NrL8Z9WTkwkTXTKuAJG4MPG3ZFdQxi8ISXKLBW5jZE5_b7zEbzIi2YM_796PfHlulMMe6uCmVnWp3Vdj0x4O2OwjeDMkxHF2JS5zUgpeCqeF8gPP9V44YKakFtRP_wOjYvtE6IbQlff61eT3DauT4qc30BOfJJjh_oDPPpo6rnYO; HSID=ATV3juZaZTkJWIFqS; SSID=A-W5xDS9j7T2jJIoW; TZ=-240", 
        "content-type": "application/x-www-form-urlencoded;charset=utf-8"
      }
    }, 
    {
      "path": "/mail/?ui=2&ik=002749575f&view=au&mb=0&rt=j", 
      "response_file": "026", 
      "method": "POST", 
      "headers": {
        "origin": "https://mail.google.com", 
        "content-length": "0", 
        "accept-language": "en-US,en;q=0.8", 
        "host": "mail.google.com", 
        "accept": "*/*", 
        "user-agent": "Mozilla/5.0 (X11; U; Linux x86_64; en-US) AppleWebKit/533.4 (KHTML, like Gecko) Chrome/5.0.375.99 Safari/533.4", 
        "accept-charset": "ISO-8859-1,utf-8;q=0.7,*;q=0.3", 
        "connection": "keep-alive", 
        "referer": "https://mail.google.com/mail/?shva=1", 
        "x-same-domain": "1", 
        "cookie": "GXSP=S; GX=DQAAAKAAAACWL7JAPh93xDed9s0hJ7OBtzX7YITwhj-_bxdDl5MIXHH63NzEW_QsiVVWnjuX2zS6J2HY-ZqiB1ttGrELWjUz-0Bl6rpkiyRv-f2y2xTu2PAaw5VgE55sLjE6MVS_S3RbLD1oCA21QqCd6YgEMtu3yJ8GdRTd_C11HffhBchREp1yAqLkvAmzdwxzO0Uglt6N9MqfjUv736354T-7b_zk; gmailchat=chrome.record.playback@gmail.com/287506; S=gmail=znySPliPmYTPI98wp9P24w:gmproxy=sgmLK2ssXhM8-54CShBPiQ; GMAIL_AT=AF6bupNWpBbLMYXqNN4Oukx0DLEYWlYzVg; GMAIL_IMP=v*2%2Fcon-bw*0*20!fast%2Fpf-s*5539; NID=33=Q8YOTm040cX43J0ziZ_J8JFF-yed7OqxGs8U400WonyYkwj2EMIW9iM6he8WXFrLx7fpjTIOMwAZMd1acEiRiEhisiktZJJWOmCCzC_JvyoGZDmK5_RNUcB16Dzn75ZM; PREF=ID=c9a5d1cf1b0a06a4:U=12b4c458efd9fb10:TM=1270718561:LM=1270718582:GM=1:S=e1gS8-kLqBDTJncY; rememberme=true; SID=DQAAAKAAAAA3AwjciByqHrI5zcPf0LxEBIIz3xWTonQqNuQNvcM9NrL8Z9WTkwkTXTKuAJG4MPG3ZFdQxi8ISXKLBW5jZE5_b7zEbzIi2YM_796PfHlulMMe6uCmVnWp3Vdj0x4O2OwjeDMkxHF2JS5zUgpeCqeF8gPP9V44YKakFtRP_wOjYvtE6IbQlff61eT3DauT4qc30BOfJJjh_oDPPpo6rnYO; HSID=ATV3juZaZTkJWIFqS; SSID=A-W5xDS9j7T2jJIoW; TZ=-240", 
        "content-type": "application/x-www-form-urlencoded;charset=utf-8"
      }
    }, 
    {
      "path": "/mail/?ui=2&view=jsm&name=sy91%2Csy147%2Csy86%2Csy100%2Csy139%2Csy251%2Csy263%2Csy264%2Ccv&ver=msMvpc35A6Q.en.&am=!5unIWCRtioyxxX0CEfMmgmqP3saW8vf3U0c-Ancf0xClXUmWcg", 
      "response_file": "027", 
      "method": "GET", 
      "headers": {
        "accept-language": "en-US,en;q=0.8", 
        "host": "mail.google.com", 
        "accept": "*/*", 
        "user-agent": "Mozilla/5.0 (X11; U; Linux x86_64; en-US) AppleWebKit/533.4 (KHTML, like Gecko) Chrome/5.0.375.99 Safari/533.4", 
        "accept-charset": "ISO-8859-1,utf-8;q=0.7,*;q=0.3", 
        "connection": "keep-alive", 
        "referer": "https://mail.google.com/mail/?shva=1", 
        "cookie": "GXSP=S; GX=DQAAAKAAAACWL7JAPh93xDed9s0hJ7OBtzX7YITwhj-_bxdDl5MIXHH63NzEW_QsiVVWnjuX2zS6J2HY-ZqiB1ttGrELWjUz-0Bl6rpkiyRv-f2y2xTu2PAaw5VgE55sLjE6MVS_S3RbLD1oCA21QqCd6YgEMtu3yJ8GdRTd_C11HffhBchREp1yAqLkvAmzdwxzO0Uglt6N9MqfjUv736354T-7b_zk; gmailchat=chrome.record.playback@gmail.com/287506; S=gmail=znySPliPmYTPI98wp9P24w:gmproxy=sgmLK2ssXhM8-54CShBPiQ; GMAIL_STAT_384=/S:v=2&a=i&ev=tl&t=4374&e=m%3D0%2Cr%3D294%2Cj%3D2079%2Cjl%3D2519%2Cs%3D3448%2Ci%3D3688&r=1&rn=27&mn=tnt%3A120&mg=tsr%3An&ai=mail%3Ai.384.0.2; GMAIL_AT=AF6bupNWpBbLMYXqNN4Oukx0DLEYWlYzVg; GMAIL_IMP=v*2%2Fpf-s*4633%2Fpf-s*3259; NID=33=Q8YOTm040cX43J0ziZ_J8JFF-yed7OqxGs8U400WonyYkwj2EMIW9iM6he8WXFrLx7fpjTIOMwAZMd1acEiRiEhisiktZJJWOmCCzC_JvyoGZDmK5_RNUcB16Dzn75ZM; PREF=ID=c9a5d1cf1b0a06a4:U=12b4c458efd9fb10:TM=1270718561:LM=1270718582:GM=1:S=e1gS8-kLqBDTJncY; rememberme=true; SID=DQAAAKAAAAA3AwjciByqHrI5zcPf0LxEBIIz3xWTonQqNuQNvcM9NrL8Z9WTkwkTXTKuAJG4MPG3ZFdQxi8ISXKLBW5jZE5_b7zEbzIi2YM_796PfHlulMMe6uCmVnWp3Vdj0x4O2OwjeDMkxHF2JS5zUgpeCqeF8gPP9V44YKakFtRP_wOjYvtE6IbQlff61eT3DauT4qc30BOfJJjh_oDPPpo6rnYO; HSID=ATV3juZaZTkJWIFqS; SSID=A-W5xDS9j7T2jJIoW; TZ=-240"
      }
    }, 
    {
      "path": "/mail/?ui=2&ik=002749575f&rid=384..&view=cv&th=128193900eb07803&th=12801677ec549b9f&th=128193949d802770&prf=1&nsc=1&mb=0&rt=j&search=inbox", 
      "response_file": "028", 
      "method": "POST", 
      "headers": {
        "origin": "https://mail.google.com", 
        "content-length": "0", 
        "accept-language": "en-US,en;q=0.8", 
        "host": "mail.google.com", 
        "accept": "*/*", 
        "user-agent": "Mozilla/5.0 (X11; U; Linux x86_64; en-US) AppleWebKit/533.4 (KHTML, like Gecko) Chrome/5.0.375.99 Safari/533.4", 
        "accept-charset": "ISO-8859-1,utf-8;q=0.7,*;q=0.3", 
        "connection": "keep-alive", 
        "referer": "https://mail.google.com/mail/?shva=1", 
        "x-same-domain": "1", 
        "cookie": "GXSP=S; GX=DQAAAKAAAACWL7JAPh93xDed9s0hJ7OBtzX7YITwhj-_bxdDl5MIXHH63NzEW_QsiVVWnjuX2zS6J2HY-ZqiB1ttGrELWjUz-0Bl6rpkiyRv-f2y2xTu2PAaw5VgE55sLjE6MVS_S3RbLD1oCA21QqCd6YgEMtu3yJ8GdRTd_C11HffhBchREp1yAqLkvAmzdwxzO0Uglt6N9MqfjUv736354T-7b_zk; gmailchat=chrome.record.playback@gmail.com/287506; S=gmail=znySPliPmYTPI98wp9P24w:gmproxy=sgmLK2ssXhM8-54CShBPiQ; GMAIL_AT=AF6bupNWpBbLMYXqNN4Oukx0DLEYWlYzVg; GMAIL_IMP=v*2%2Fcon-bw*0*20!fast%2Fpf-s*5539; NID=33=Q8YOTm040cX43J0ziZ_J8JFF-yed7OqxGs8U400WonyYkwj2EMIW9iM6he8WXFrLx7fpjTIOMwAZMd1acEiRiEhisiktZJJWOmCCzC_JvyoGZDmK5_RNUcB16Dzn75ZM; PREF=ID=c9a5d1cf1b0a06a4:U=12b4c458efd9fb10:TM=1270718561:LM=1270718582:GM=1:S=e1gS8-kLqBDTJncY; rememberme=true; SID=DQAAAKAAAAA3AwjciByqHrI5zcPf0LxEBIIz3xWTonQqNuQNvcM9NrL8Z9WTkwkTXTKuAJG4MPG3ZFdQxi8ISXKLBW5jZE5_b7zEbzIi2YM_796PfHlulMMe6uCmVnWp3Vdj0x4O2OwjeDMkxHF2JS5zUgpeCqeF8gPP9V44YKakFtRP_wOjYvtE6IbQlff61eT3DauT4qc30BOfJJjh_oDPPpo6rnYO; HSID=ATV3juZaZTkJWIFqS; SSID=A-W5xDS9j7T2jJIoW; TZ=-240", 
        "content-type": "application/x-www-form-urlencoded;charset=utf-8"
      }
    }, 
    {
      "path": "/mail/?ui=2&ik=002749575f&rid=384..&view=lno&mb=0&rt=j", 
      "response_file": "029", 
      "method": "POST", 
      "headers": {
        "origin": "https://mail.google.com", 
        "content-length": "0", 
        "accept-language": "en-US,en;q=0.8", 
        "host": "mail.google.com", 
        "accept": "*/*", 
        "user-agent": "Mozilla/5.0 (X11; U; Linux x86_64; en-US) AppleWebKit/533.4 (KHTML, like Gecko) Chrome/5.0.375.99 Safari/533.4", 
        "accept-charset": "ISO-8859-1,utf-8;q=0.7,*;q=0.3", 
        "connection": "keep-alive", 
        "referer": "https://mail.google.com/mail/?shva=1", 
        "x-same-domain": "1", 
        "cookie": "GXSP=S; GX=DQAAAKAAAACWL7JAPh93xDed9s0hJ7OBtzX7YITwhj-_bxdDl5MIXHH63NzEW_QsiVVWnjuX2zS6J2HY-ZqiB1ttGrELWjUz-0Bl6rpkiyRv-f2y2xTu2PAaw5VgE55sLjE6MVS_S3RbLD1oCA21QqCd6YgEMtu3yJ8GdRTd_C11HffhBchREp1yAqLkvAmzdwxzO0Uglt6N9MqfjUv736354T-7b_zk; gmailchat=chrome.record.playback@gmail.com/287506; S=gmail=znySPliPmYTPI98wp9P24w:gmproxy=sgmLK2ssXhM8-54CShBPiQ; GMAIL_AT=AF6bupNWpBbLMYXqNN4Oukx0DLEYWlYzVg; GMAIL_IMP=v*2%2Fpf-s*6118; NID=33=Q8YOTm040cX43J0ziZ_J8JFF-yed7OqxGs8U400WonyYkwj2EMIW9iM6he8WXFrLx7fpjTIOMwAZMd1acEiRiEhisiktZJJWOmCCzC_JvyoGZDmK5_RNUcB16Dzn75ZM; PREF=ID=c9a5d1cf1b0a06a4:U=12b4c458efd9fb10:TM=1270718561:LM=1270718582:GM=1:S=e1gS8-kLqBDTJncY; rememberme=true; SID=DQAAAKAAAAA3AwjciByqHrI5zcPf0LxEBIIz3xWTonQqNuQNvcM9NrL8Z9WTkwkTXTKuAJG4MPG3ZFdQxi8ISXKLBW5jZE5_b7zEbzIi2YM_796PfHlulMMe6uCmVnWp3Vdj0x4O2OwjeDMkxHF2JS5zUgpeCqeF8gPP9V44YKakFtRP_wOjYvtE6IbQlff61eT3DauT4qc30BOfJJjh_oDPPpo6rnYO; HSID=ATV3juZaZTkJWIFqS; SSID=A-W5xDS9j7T2jJIoW; TZ=-240", 
        "content-type": "application/x-www-form-urlencoded;charset=utf-8"
      }
    }, 
    {
      "path": "/mail/?ui=2&view=jsm&name=sy57%2Csy67%2Csy70%2Csy64%2Csy73%2Csy300%2Csy72%2Ccc%2Csy77%2Csy166%2Csy285%2Csy301%2Csy151%2Csy298%2Ccw%2Cmo%2Csy56%2Csy179%2Cch&ver=msMvpc35A6Q.en.&am=!5unIWCRtioyxxX0CEfMmgmqP3saW8vf3U0c-Ancf0xClXUmWcg", 
      "response_file": "030", 
      "method": "GET", 
      "headers": {
        "accept-language": "en-US,en;q=0.8", 
        "host": "mail.google.com", 
        "accept": "*/*", 
        "user-agent": "Mozilla/5.0 (X11; U; Linux x86_64; en-US) AppleWebKit/533.4 (KHTML, like Gecko) Chrome/5.0.375.99 Safari/533.4", 
        "accept-charset": "ISO-8859-1,utf-8;q=0.7,*;q=0.3", 
        "connection": "keep-alive", 
        "referer": "https://mail.google.com/mail/?shva=1", 
        "cookie": "GXSP=S; GX=DQAAAKAAAACWL7JAPh93xDed9s0hJ7OBtzX7YITwhj-_bxdDl5MIXHH63NzEW_QsiVVWnjuX2zS6J2HY-ZqiB1ttGrELWjUz-0Bl6rpkiyRv-f2y2xTu2PAaw5VgE55sLjE6MVS_S3RbLD1oCA21QqCd6YgEMtu3yJ8GdRTd_C11HffhBchREp1yAqLkvAmzdwxzO0Uglt6N9MqfjUv736354T-7b_zk; gmailchat=chrome.record.playback@gmail.com/287506; S=gmail=znySPliPmYTPI98wp9P24w:gmproxy=sgmLK2ssXhM8-54CShBPiQ; GMAIL_AT=AF6bupNWpBbLMYXqNN4Oukx0DLEYWlYzVg; NID=33=Q8YOTm040cX43J0ziZ_J8JFF-yed7OqxGs8U400WonyYkwj2EMIW9iM6he8WXFrLx7fpjTIOMwAZMd1acEiRiEhisiktZJJWOmCCzC_JvyoGZDmK5_RNUcB16Dzn75ZM; PREF=ID=c9a5d1cf1b0a06a4:U=12b4c458efd9fb10:TM=1270718561:LM=1270718582:GM=1:S=e1gS8-kLqBDTJncY; rememberme=true; SID=DQAAAKAAAAA3AwjciByqHrI5zcPf0LxEBIIz3xWTonQqNuQNvcM9NrL8Z9WTkwkTXTKuAJG4MPG3ZFdQxi8ISXKLBW5jZE5_b7zEbzIi2YM_796PfHlulMMe6uCmVnWp3Vdj0x4O2OwjeDMkxHF2JS5zUgpeCqeF8gPP9V44YKakFtRP_wOjYvtE6IbQlff61eT3DauT4qc30BOfJJjh_oDPPpo6rnYO; HSID=ATV3juZaZTkJWIFqS; SSID=A-W5xDS9j7T2jJIoW; TZ=-240"
      }
    }
  ], 
  "height": 991, 
  "start_url": "https://mail.google.com/mail/?shva=1"
}