<?xml version="1.0" encoding="UTF-8"?>
<grit latest_public_release="0" current_release="1">
  <outputs>
    <output filename="grit/browser_resources.h" type="rc_header">
      <emit emit_type='prepend'></emit>
    </output>
    <output filename="browser_resources.pak" type="data_package" />
    <output filename="browser_resources.rc" type="rc_all" />
  </outputs>
  <release seq="1">
    <includes>
      <if expr="is_win">
        <include name="IDR_ABOUT_CONFLICTS_HTML" file="resources\about_conflicts.html" flattenhtml="true" allowexternalscript="true" type="BINDATA" />
        <include name="IDR_ABOUT_CONFLICTS_JS" file="resources\about_conflicts.js" type="BINDATA" />
      </if>
      <include name="IDR_ABOUT_FLASH_HTML" file="resources\about_flash.html" flattenhtml="true" allowexternalscript="true" type="BINDATA" />
      <include name="IDR_ABOUT_FLASH_JS" file="resources\about_flash.js" type="BINDATA" />
      <if expr="is_posix and not is_macosx">
        <include name="IDR_ABOUT_MEMORY_HTML" file="resources\about_memory_linux.html" flattenhtml="true" type="BINDATA" />
      </if>
      <if expr="is_macosx">
        <include name="IDR_ABOUT_MEMORY_HTML" file="resources\about_memory_mac.html" flattenhtml="true" type="BINDATA" />
      </if>
      <if expr="is_win">
        <include name="IDR_ABOUT_MEMORY_HTML" file="resources\about_memory.html" flattenhtml="true" type="BINDATA" />
      </if>
      <include name="IDR_ABOUT_MEMORY_JS" file="resources\about_memory.js" type="BINDATA" />
      <include name="IDR_ABOUT_STATS_HTML" file="resources\about_stats.html" flattenhtml="true" allowexternalscript="true" type="BINDATA" />
      <include name="IDR_ABOUT_STATS_JS" file="resources\about_stats.js" type="BINDATA" />
      <include name="IDR_ABOUT_VERSION_HTML" file="resources\about_version.html" flattenhtml="true" allowexternalscript="true" type="BINDATA" />
      <include name="IDR_ABOUT_VERSION_JS" file="resources\about_version.js" type="BINDATA" />
      <include name="IDR_BOOKMARKS_MANIFEST" file="resources\bookmark_manager\manifest.json" type="BINDATA" />
      <if expr="is_posix and not is_macosx">
        <include name="IDR_CERTIFICATE_VIEWER_HTML" file="resources\certificate_viewer.html" type="BINDATA" />
        <include name="IDR_CERTIFICATE_VIEWER_JS" file="resources\certificate_viewer.js" type="BINDATA" />
        <include name="IDR_CERTIFICATE_VIEWER_CSS" file="resources\certificate_viewer.css" type="BINDATA" />
      </if>
      <include name="IDR_CLOUDPRINT_MANIFEST" file="resources\cloud_print_app\manifest.json" type="BINDATA" />
      <include name="IDR_CLOUD_PRINT_SETUP_DONE_HTML" file="resources\cloud_print\cloud_print_setup_done.html" flattenhtml="true" type="BINDATA" />
      <include name="IDR_CLOUD_PRINT_SETUP_FLOW_HTML" file="resources\cloud_print\cloud_print_setup_flow.html" flattenhtml="true" type="BINDATA" />
      <include name="IDR_CLOUD_PRINT_SETUP_LOGIN_HTML" file="resources\cloud_print\cloud_print_setup_login.html" flattenhtml="true" type="BINDATA" />
      <include name="IDR_CRASHES_HTML" file="resources\crashes.html" flattenhtml="true" allowexternalscript="true" type="BINDATA" />
      <include name="IDR_CRASHES_JS" file="resources\crashes.js" type="BINDATA" />
      <include name="IDR_CREDITS_HTML" file="resources\about_credits.html" flattenhtml="true" type="BINDATA" />
      <include name="IDR_CREDITS_JS" file="resources\about_credits.js" type="BINDATA" />
      <include name="IDR_DOWNLOADS_CSS" file="resources\downloads\downloads.css" flattenhtml="true" type="BINDATA" />
      <include name="IDR_DOWNLOADS_HTML" file="resources\downloads\downloads.html" flattenhtml="true" allowexternalscript="true" type="BINDATA" />
      <include name="IDR_DOWNLOADS_JS" file="resources\downloads\downloads.js" type="BINDATA" />
      <if expr="is_macosx">
        <include name="IDR_EXTENSIONS_INFOBAR_CSS" file="resources\extensions_infobar_mac.css" flattenhtml="true" type="BINDATA" />
      </if>
      <if expr="not is_macosx">
        <include name="IDR_EXTENSIONS_INFOBAR_CSS" file="resources\extensions_infobar.css" flattenhtml="true" type="BINDATA" />
      </if>
      <include name="IDR_EXTENSION_LIST_JS" file="resources\extensions\extension_list.js" flattenhtml="true" type="BINDATA" />
      <include name="IDR_EXTENSION_ACTIVITY_HTML" file="resources\extensions\extension_activity.html" flattenhtml="true" type="BINDATA" />
      <include name="IDR_EXTENSION_ACTIVITY_JS" file="resources\extensions\extension_activity.js" flattenhtml="true" type="BINDATA" />
      <include name="IDR_EXTENSIONS_HTML" file="resources\extensions\extensions.html" flattenhtml="true" type="BINDATA" />
      <include name="IDR_EXTENSIONS_JS" file="resources\extensions\extensions.js" flattenhtml="true" type="BINDATA" />
      <include name="IDR_FLAGS_HTML" file="resources\flags.html" flattenhtml="true" type="BINDATA" />
      <include name="IDR_FLAGS_HTML_WARNING" file="resources\flags_warning.html" flattenhtml="true" type="BINDATA" />
      <include name="IDR_FLAGS_JS" file="resources\flags.js" type="BINDATA" />
      <include name="IDR_GAIA_LOGIN_HTML" file="sync\resources\gaia_login.html" flattenhtml="true" type="BINDATA" />
      <include name="IDR_HELP_CSS" file="resources\help\help.css" flattenhtml="true" type="BINDATA" />
      <include name="IDR_HELP_HTML" file="resources\help\help.html" flattenhtml="true" type="BINDATA" />
      <include name="IDR_HELP_JS" file="resources\help\help.js" flattenhtml="true" type="BINDATA" />
      <include name="IDR_GPU_BLACKLIST" file="resources\software_rendering_list\software_rendering_list.json" type="BINDATA" />
      <include name="IDR_GPU_INTERNALS_HTML" file="resources\gpu_internals\gpu_internals.html" flattenhtml="true" allowexternalscript="true" type="BINDATA" />
      <include name="IDR_GPU_INTERNALS_JS" file="resources\gpu_internals\gpu_internals.js" flattenhtml="true" type="BINDATA" />
      <include name="IDR_HISTORY_HTML" file="resources\history\history.html" flattenhtml="true" allowexternalscript="true" type="BINDATA" />
      <include name="IDR_HISTORY_JS" file="resources\history\history.js" flattenhtml="true" type="BINDATA" />
      <include name="IDR_INCOGNITO_TAB_HTML" file="resources\incognito_tab.html" flattenhtml="true" type="BINDATA" />
      <include name="IDR_KEYBOARD_MANIFEST" file="resources\keyboard\manifest.json" type="BINDATA" />
      <include name="IDR_MEDIA_INTERNALS_HTML" file="resources\media_internals.html" flattenhtml="true" allowexternalscript="true" type="BINDATA" />
      <include name="IDR_MEDIA_INTERNALS_JS" file="resources\media_internals\media_internals.js" flattenhtml="true" type="BINDATA" />
      <include name="IDR_NETWORK_ACTION_PREDICTOR_HTML" file="resources\network_action_predictor\network_action_predictor.html" flattenhtml="true" allowexternalscript="true" type="BINDATA" />
      <include name="IDR_NETWORK_ACTION_PREDICTOR_JS" file="resources\network_action_predictor\network_action_predictor.js" type="BINDATA" />
      <include name="IDR_NEW_INCOGNITO_TAB_THEME_CSS" file="resources\new_incognito_tab_theme.css" flattenhtml="true" type="BINDATA" />
      <include name="IDR_NEW_TAB_4_HTML" file="resources\ntp4\new_tab.html" flattenhtml="true" type="BINDATA" />
      <include name="IDR_NEW_TAB_4_THEME_CSS" file="resources\ntp4\new_tab_theme.css" flattenhtml="true" type="BINDATA" />
      <include name="IDR_NOTIFICATION_1LINE_HTML" file="resources\notification_1line.html" flattenhtml="true" type="BINDATA" />
      <include name="IDR_NOTIFICATION_2LINE_HTML" file="resources\notification_2line.html" flattenhtml="true" type="BINDATA" />
      <include name="IDR_NOTIFICATION_ICON_HTML" file="resources\notification_icon.html" type="BINDATA" />
      <include name="IDR_OMNIBOX_HTML" file="resources\omnibox\omnibox.html" flattenhtml="true" allowexternalscript="true" type="BINDATA" />
      <include name="IDR_OMNIBOX_CSS" file="resources\omnibox\omnibox.css" type="BINDATA" />
      <include name="IDR_OMNIBOX_JS" file="resources\omnibox\omnibox.js" type="BINDATA" />
      <include name="IDR_PLUGINS_HTML" file="resources\plugins.html" flattenhtml="true" allowexternalscript="true" type="BINDATA" />
      <include name="IDR_PLUGINS_JS" file="resources\plugins.js" type="BINDATA" />
      <if expr="is_win">
        <include name="IDR_PLUGIN_DB_JSON" file="resources\plugins_win.json" type="BINDATA" />
      </if>
      <if expr="is_macosx">
        <include name="IDR_PLUGIN_DB_JSON" file="resources\plugins_mac.json" type="BINDATA" />
      </if>
      <if expr="is_linux">
        <include name="IDR_PLUGIN_DB_JSON" file="resources\plugins_linux.json" type="BINDATA" />
      </if>
      <include name="IDR_POLICY_CSS" file="resources\policy.css" type="BINDATA"/>
      <include name="IDR_POLICY_HTML" file="resources\policy.html" flattenhtml="true" allowexternalscript="true" type="BINDATA"/>
      <include name="IDR_POLICY_JS" file="resources\policy.js" type="BINDATA"/>
      <include name="IDR_PRINT_PREVIEW_DUMMY_HTML" file="resources\print_preview\print_preview_dummy.html" flattenhtml="true" allowexternalscript="true" type="BINDATA" />
      <include name="IDR_PRINT_PREVIEW_DUMMY_JS" file="resources\print_preview\print_preview_dummy.js" flattenhtml="true" type="BINDATA" />
      <include name="IDR_PRINT_PREVIEW_HTML" file="resources\print_preview\print_preview.html" flattenhtml="true" allowexternalscript="true" type="BINDATA" />
      <include name="IDR_PRINT_PREVIEW_JS" file="resources\print_preview\print_preview.js" flattenhtml="true" type="BINDATA" />
      <include name="IDR_PROFILER_HTML" file="resources\profiler\profiler.html" flattenhtml="true" allowexternalscript="true" type="BINDATA" />
      <include name="IDR_PROFILER_JS" file="resources\profiler\profiler.js" flattenhtml="true" type="BINDATA" />
      <include name="IDR_READER_OUT_OF_DATE_HTML" file="resources\reader_out_of_date.html" flattenhtml="true" type="BINDATA" />
      <include name="IDR_SAFE_BROWSING_MALWARE_BLOCK" file="resources\safe_browsing_malware_block.html" flattenhtml="true" type="BINDATA" />
      <include name="IDR_SAFE_BROWSING_MULTIPLE_THREAT_BLOCK" file="resources\safe_browsing_multiple_threat_block.html" flattenhtml="true" type="BINDATA" />
      <include name="IDR_SAFE_BROWSING_PHISHING_BLOCK" file="resources\safe_browsing_phishing_block.html" flattenhtml="true" type="BINDATA" />
      <include name="IDR_SUGGESTIONS_PAGE_CSS" file="resources\ntp4\suggestions_page.css" type="BINDATA" />
      <include name="IDR_SUGGESTIONS_PAGE_JS" file="resources\ntp4\suggestions_page.js" type="BINDATA" />
      <include name="IDR_SESSIONS_HTML" file="resources\sessions.html" flattenhtml="true" allowexternalscript="true" type="BINDATA" />
      <include name="IDR_SESSIONS_JS" file="resources\sessions.js" flattenhtml="true" type="BINDATA" />
      <include name="IDR_SSL_ERROR_HTML" file="resources\ssl_error.html" flattenhtml="true" type="BINDATA" />
      <include name="IDR_SSL_ROAD_BLOCK_HTML" file="resources\ssl_roadblock.html" flattenhtml="true" type="BINDATA" />
      <include name="IDR_TASK_MANAGER_HTML" file="resources\task_manager\main.html" flattenhtml="true" allowexternalscript="true" type="BINDATA" />
      <include name="IDR_TASK_MANAGER_COMMANDS_JS" file="resources\task_manager\commands.js" type="BINDATA" />
      <!-- The following defines.js uses flattenhtml feature to remove the platform-dependent code at complie-time. -->
      <include name="IDR_TASK_MANAGER_DEFINES_JS" file="resources\task_manager\defines.js" flattenhtml="true" type="BINDATA" />
      <include name="IDR_TASK_MANAGER_INCLUDES_JS" file="resources\task_manager\includes.js" type="BINDATA" />
      <include name="IDR_TASK_MANAGER_PRELOAD_JS" file="resources\task_manager\preload.js" type="BINDATA" />
      <!-- The following main.js uses flattenhtml feature to remove the platform-dependent code at complie-time. -->
      <include name="IDR_TASK_MANAGER_JS" file="resources\task_manager\main.js" flattenhtml="true" type="BINDATA" />
      <include name="IDR_TASK_MANAGER_MEASURE_TIME_JS" file="resources\task_manager\measure_time.js" type="BINDATA" /> 
      <include name="IDR_TASK_MANAGER_MEASURE_TIME_END_JS" file="resources\task_manager\measure_time_end.js" type="BINDATA" /> 
      <include name="IDR_TRACING_HTML" file="resources\tracing.html" flattenhtml="true" allowexternalscript="true" type="BINDATA" />
      <include name="IDR_TRACING_JS" file="resources\tracing.js" flattenhtml="true" type="BINDATA" />
      <include name="IDR_TRANSLATE_JS" file="resources\translate.js" type="BINDATA" />
      <include name="IDR_FEEDBACK_HTML" file="resources\feedback.html" flattenhtml="true" allowexternalscript="true" type="BINDATA" />
      <include name="IDR_FEEDBACK_HTML_INVALID" file="resources\feedback_invalid.html" allowexternalscript="true" flattenhtml="true" type="BINDATA" />
      <include name="IDR_FEEDBACK_JS" file="resources\feedback.js" flattenhtml="true" type="BINDATA" />
      <include name="IDR_UBER_HTML" file="resources\uber\uber.html" flattenhtml="true" type="BINDATA" />
      <include name="IDR_UBER_JS" file="resources\uber\uber.js" type="BINDATA" />
      <include name="IDR_UBER_FRAME_HTML" file="resources\uber\uber_frame.html" flattenhtml="true" type="BINDATA" />
      <include name="IDR_UBER_FRAME_JS" file="resources\uber\uber_frame.js" flattenhtml="true" type="BINDATA" />
      <include name="IDR_UBER_UTILS_JS" file="resources\uber\uber_utils.js" type="BINDATA" />
      <include name="IDR_WEBSTORE_MANIFEST" file="resources\webstore_app\manifest.json" type="BINDATA" />
      <include name="IDR_ENTERPRISE_WEBSTORE_MANIFEST" file="resources\enterprise_webstore_app\manifest.json" type="BINDATA" />
      <if expr="not pp_ifdef('chromeos')">
        <include name="IDR_SYNC_PROMO_JS" file="resources\sync_promo\sync_promo.js" flattenhtml="true" type="BINDATA" />
        <include name="IDR_SYNC_PROMO_HTML" file="resources\sync_promo\sync_promo.html" flattenhtml="true" allowexternalscript="true" type="BINDATA" />
      </if>
      <if expr="pp_ifdef('chromeos')">
        <include name="IDR_ABOUT_SYS_HTML" file="resources\chromeos\about_sys.html" flattenhtml="true" type="BINDATA" />
        <include name="IDR_ACTIVE_DOWNLOADS_HTML" file="resources\chromeos\active_downloads.html" flattenhtml="true" allowexternalscript="true" type="BINDATA" />
        <include name="IDR_ACTIVE_DOWNLOADS_JS" file="resources\chromeos\active_downloads.js" type="BINDATA" />
        <include name="IDR_CHOOSE_MOBILE_NETWORK_HTML" file="resources\chromeos\choose_mobile_network.html" flattenhtml="true" allowexternalscript="true" type="BINDATA" />
        <include name="IDR_CHOOSE_MOBILE_NETWORK_JS" file="resources\chromeos\choose_mobile_network.js" type="BINDATA" />
        <!-- manifest file of ChromeVox accessibility extension -->
        <include name="IDR_CHROMEVOX_MANIFEST" file="resources\chromeos\access_chromevox\manifest.json" type="BINDATA" />
        <include name="IDR_GAIA_AUTH_MANIFEST" file="resources\chromeos\gaia_auth\manifest.json" type="BINDATA" />
        <include name="IDR_GAIA_TEST_AUTH_MANIFEST" file="resources\chromeos\gaia_auth\manifest_test.json" type="BINDATA" />
        <include name="IDR_GUEST_SESSION_TAB_HTML" file="resources\chromeos\guest_session_tab.html" flattenhtml="true" type="BINDATA" />
        <include name="IDR_HOST_REGISTRATION_PAGE_HTML" file="resources\chromeos\host_registration_page.html" flattenhtml="true" type="BINDATA" />
        <include name="IDR_IMAGEBURNER_HTML" file="resources\chromeos\image_burner.html" flattenhtml="true" allowexternalscript="true" type="BINDATA" />
        <include name="IDR_IMAGEBURNER_JS" file="resources\chromeos\image_burner.js" type="BINDATA" />
        <include name="IDR_KEYBOARD_OVERLAY_CSS" file="resources\chromeos\keyboard_overlay.css" flattenhtml="true" type="BINDATA" />
        <include name="IDR_KEYBOARD_OVERLAY_HTML" file="resources\chromeos\keyboard_overlay.html" flattenhtml="true" allowexternalscript="true" type="BINDATA" />
        <include name="IDR_KEYBOARD_OVERLAY_JS" file="resources\chromeos\keyboard_overlay.js" flattenhtml="true" type="BINDATA" />
        <include name="IDR_LOGIN_HTML" file="resources\chromeos\login\login.html" flattenhtml="true" type="BINDATA" />
        <include name="IDR_DEMO_USER_LOGIN_HTML" file="resources\chromeos\login\demo_user_login.html" flattenhtml="true" type="BINDATA" />
        <include name="IDR_MENU_HTML" file="resources\chromeos\menu.html" flattenhtml="true" type="BINDATA" />
        <include name="IDR_MOBILE_MANIFEST" file="resources\chromeos\mobile_app\manifest.json" type="BINDATA" />
        <include name="IDR_MOBILE_SETUP_PAGE_HTML" file="resources\chromeos\mobile_setup.html" flattenhtml="true" type="BINDATA" />
        <include name="IDR_NETWORK_MENU_CSS" file="resources\chromeos\network_menu.css" flattenhtml="true" type="BINDATA" />
        <include name="IDR_NETWORK_MENU_JS" file="resources\chromeos\network_menu.js" flattenhtml="true" type="BINDATA" />
        <include name="IDR_NOTIFICATION_ICON_LINK_HTML" file="resources\chromeos\notification_icon_link.html" type="BINDATA" />
        <include name="IDR_OFFLINE_LOAD_HTML" file="resources\chromeos\offline_load.html" flattenhtml="true" type="BINDATA" />
        <include name="IDR_OOBE_HTML" file="resources\chromeos\login\oobe.html" flattenhtml="true" type="BINDATA" />
        <include name="IDR_OS_CREDITS_HTML" file="resources\chromeos\about_os_credits.html" flattenhtml="true" type="BINDATA" />
        <include name="IDR_PROXY_SETTINGS_HTML" file="resources\chromeos\proxy_settings.html" flattenhtml="true" type="BINDATA" />
        <include name="IDR_SIM_UNLOCK_HTML" file="resources\chromeos\sim_unlock.html" flattenhtml="true" type="BINDATA" />
        <include name="IDR_WRENCH_MENU_CSS" file="resources\chromeos\wrench_menu.css" flattenhtml="true" type="BINDATA" />
        <include name="IDR_WRENCH_MENU_JS" file="resources\chromeos\wrench_menu.js" flattenhtml="true" type="BINDATA" />
      </if>
      <if expr="pp_ifdef('file_manager_extension')">
        <include name="IDR_FILEMANAGER_MANIFEST" file="resources\file_manager\manifest.json" type="BINDATA" />
      </if>
      <if expr="(is_linux and pp_ifdef('toolkit_views')) or pp_ifdef('use_aura')">
        <include name="IDR_HTTP_AUTH_HTML" file="resources\http_auth.html" flattenhtml="true" type="BINDATA" />
        <include name="IDR_TAB_MODAL_CONFIRM_DIALOG_HTML" file="resources\tab_modal_confirm_dialog.html" flattenhtml="true" type="BINDATA" />
      </if>
      <if expr="pp_ifdef('chromeos') and pp_ifdef('_google_chrome')">
        <include name="IDR_HELP_MANIFEST" file="resources\help_app\manifest.json" type="BINDATA" />
      </if>
    </includes>
  </release>
</grit>
