{
  "dependencies": [
    "chrome"
  ],
  "executable": "%(OUTDIR)s/ui_tests%(EXE)s",
  "files": [
    "base/base_paths_linux.cc",
    "chrome/test/data/content-disposition-empty.html",
    "chrome/test/data/content-disposition-inline.html",
    "chrome/test/data/content-sniffer-test0.html",
    "chrome/test/data/content-sniffer-test1.html",
    "chrome/test/data/content-sniffer-test2.html",
    "chrome/test/data/content-sniffer-test3.html",
    "chrome/test/data/nosniff-test.html",
    "chrome/test/data/download-test1.lib",
    "chrome/test/data/download-test1.lib.mock-http-headers",
    "chrome/test/data/download-test2.html",
    "chrome/test/data/download-test2.html.mock-http-headers",
    "chrome/test/data/download-test3.gif",
    "chrome/test/data/download-test3.gif.mock-http-headers",
    "chrome/test/data/download_page1.html",
    "chrome/test/data/download_page2.html",
    "chrome/test/data/download_page3.html",
    "chrome/test/data/download_page4.html",
    "chrome/test/data/dromaeo/",
    "chrome/test/data/encoding_tests/",
    "chrome/test/data/session_history/",
    "chrome/test/data/sunspider/",
    "chrome/test/data/v8_benchmark/",
    "net/tools/testserver/",
    "third_party/pyftpdlib/pyftpdlib/",
    "third_party/tlslite/tlslite/",
    "%(OUTDIR)s/resources.pak"
  ],
  "os": {
    "linux": {
      "files": [
        "%(OUTDIR)s/xdisplaycheck",
        "chrome/tools/test/reference_build/chrome_linux/"
      ]
    },
    "win32": {
      "files": [
        "%(OUTDIR)s/crash_service.exe",
        "chrome/tools/test/reference_build/chrome/"
      ]
    }
  },
  "prefix": "src"
}
