<?xml version="1.0" encoding="UTF-8"?>
<!-- This comment is only here because changes to resources are not picked up
without changes to the corresponding grd file. fb9 -->
<grit latest_public_release="0" current_release="1">
  <outputs>
    <output filename="grit/renderer_resources.h" type="rc_header">
      <emit emit_type='prepend'></emit>
    </output>
    <output filename="renderer_resources.pak" type="data_package" />
    <output filename="renderer_resources.rc" type="rc_all" />
  </outputs>
  <release seq="1">
    <includes>
      <include name="IDR_APP_BINDINGS_JS" file="resources\extensions\app.js" type="BINDATA" />
      <include name="IDR_BLOCKED_PLUGIN_HTML" file="resources\blocked_plugin.html" flattenhtml="true" type="BINDATA" />
      <include name="IDR_CLICK_TO_PLAY_PLUGIN_HTML" file="resources\click_to_play_plugin.html" flattenhtml="true" type="BINDATA" />
      <include name="IDR_DISABLED_PLUGIN_HTML" file="resources\disabled_plugin.html" flattenhtml="true" type="BINDATA" />
      <include name="IDR_ERROR_APP_HTML" file="resources\error_app.html" flattenhtml="true" type="BINDATA" />
      <include name="IDR_EVENT_BINDINGS_JS" file="resources\extensions\event.js" type="BINDATA" />
      <include name="IDR_EXTENSION_APITEST_JS" file="resources\extensions\apitest.js" type="BINDATA" />
      <include name="IDR_GREASEMONKEY_API_JS" file="resources\extensions\greasemonkey_api.js" type="BINDATA" />
      <include name="IDR_JSON_SCHEMA_JS" file="resources\extensions\json_schema.js" type="BINDATA" />
      <include name="IDR_MISCELLANEOUS_BINDINGS_JS" file="resources\extensions\miscellaneous_bindings.js" type="BINDATA" />
      <include name="IDR_NET_ERROR_HTML" file="resources\neterror.html" flattenhtml="true" type="BINDATA" />
      <include name="IDR_PLATFORM_APP_CSS" file="resources\extensions\platform_app.css" type="BINDATA" />
      <include name="IDR_SAD_PLUGIN" file="resources\sadplugin.png" type="BINDATA" />
      <include name="IDR_SCHEMA_GENERATED_BINDINGS_JS" file="resources\extensions\schema_generated_bindings.js" type="BINDATA" />
      <include name="IDR_SETUP_BINDINGS_JS" file="resources\extensions\setup_bindings.js" type="BINDATA" />
      <include name="IDR_WEBSTORE_BINDINGS_JS" file="resources\extensions\webstore.js" type="BINDATA" />

      <!-- Custom bindings for extension APIs. -->
      <include name="IDR_I18N_CUSTOM_BINDINGS_JS" file="resources\extensions\i18n_custom_bindings.js" type="BINDATA" />
      <include name="IDR_BROWSER_ACTION_CUSTOM_BINDINGS_JS" file="resources\extensions\browser_action_custom_bindings.js" type="BINDATA" />
      <include name="IDR_CHROME_PRIVATE_CUSTOM_BINDINGS_JS" file="resources\extensions\chrome_private_custom_bindings.js" type="BINDATA" />
      <include name="IDR_CONTENT_SETTINGS_CUSTOM_BINDINGS_JS" file="resources\extensions\content_settings_custom_bindings.js" type="BINDATA" />
      <include name="IDR_CONTEXT_MENUS_CUSTOM_BINDINGS_JS" file="resources\extensions\context_menus_custom_bindings.js" type="BINDATA" />
      <include name="IDR_DEVTOOLS_CUSTOM_BINDINGS_JS" file="resources\extensions\devtools_custom_bindings.js" type="BINDATA" />
      <include name="IDR_EXPERIMENTAL_DECLARATIVE_CUSTOM_BINDINGS_JS" file="resources\extensions\experimental.declarative_custom_bindings.js" type="BINDATA" />
      <include name="IDR_EXPERIMENTAL_SOCKET_CUSTOM_BINDINGS_JS" file="resources\extensions\experimental.socket_custom_bindings.js" type="BINDATA" />
      <include name="IDR_EXTENSION_CUSTOM_BINDINGS_JS" file="resources\extensions\extension_custom_bindings.js" type="BINDATA" />
      <include name="IDR_FILE_BROWSER_HANDLER_CUSTOM_BINDINGS_JS" file="resources\extensions\file_browser_handler_custom_bindings.js" type="BINDATA" />
      <include name="IDR_FILE_BROWSER_PRIVATE_CUSTOM_BINDINGS_JS" file="resources\extensions\file_browser_private_custom_bindings.js" type="BINDATA" />
      <include name="IDR_INPUT_IME_CUSTOM_BINDINGS_JS" file="resources\extensions\input.ime_custom_bindings.js" type="BINDATA" />
      <include name="IDR_OMNIBOX_CUSTOM_BINDINGS_JS" file="resources\extensions\omnibox_custom_bindings.js" type="BINDATA" />
      <include name="IDR_PAGE_ACTIONS_CUSTOM_BINDINGS_JS" file="resources\extensions\page_actions_custom_bindings.js" type="BINDATA" />
      <include name="IDR_PAGE_ACTION_CUSTOM_BINDINGS_JS" file="resources\extensions\page_action_custom_bindings.js" type="BINDATA" />
      <include name="IDR_PAGE_CAPTURE_CUSTOM_BINDINGS_JS" file="resources\extensions\page_capture_custom_bindings.js" type="BINDATA" />
      <include name="IDR_STORAGE_CUSTOM_BINDINGS_JS" file="resources\extensions\storage_custom_bindings.js" type="BINDATA" />
      <include name="IDR_TABS_CUSTOM_BINDINGS_JS" file="resources\extensions\tabs_custom_bindings.js" type="BINDATA" />
      <include name="IDR_TTS_CUSTOM_BINDINGS_JS" file="resources\extensions\tts_custom_bindings.js" type="BINDATA" />
      <include name="IDR_TTS_ENGINE_CUSTOM_BINDINGS_JS" file="resources\extensions\tts_engine_custom_bindings.js" type="BINDATA" />
      <include name="IDR_TYPES_CUSTOM_BINDINGS_JS" file="resources\extensions\types_custom_bindings.js" type="BINDATA" />
      <include name="IDR_WEB_REQUEST_CUSTOM_BINDINGS_JS" file="resources\extensions\web_request_custom_bindings.js" type="BINDATA" />
    </includes>
  </release>
</grit>
